<?xml version="1.0" encoding="UTF-8"?>
<session version="1.0">
<refactoring comment="Delete resource &apos;Hibermate01&apos;" deleteContents="true" description="Delete resource &apos;Hibermate01&apos;" element1="/Hibermate01" flags="7" id="org.eclipse.ltk.core.refactoring.delete.resources" resources="1" stamp="1556514886211"/>
</session>