<?xml version="1.0" encoding="UTF-8"?>
<session version="1.0">
<refactoring comment="Rename package &apos;mybatis010200&apos; to &apos;com.zb.dao&apos;&#x0D;&#x0A;- Original project: &apos;mybatis010200&apos;&#x0D;&#x0A;- Original element: &apos;mybatis010200/src/mybatis010200&apos;&#x0D;&#x0A;- Renamed element: &apos;mybatis010200/src/com.zb.dao&apos;&#x0D;&#x0A;- Update references to refactored element&#x0D;&#x0A;- Update textual occurrences in comments and strings" description="Rename package &apos;mybatis010200&apos;" flags="589830" hierarchical="false" id="org.eclipse.jdt.ui.rename.package" input="/src&lt;mybatis010200" name="com.zb.dao" qualified="false" references="true" stamp="1551102466240" textual="false" version="1.0"/>
</session>