<?xml version="1.0" encoding="UTF-8"?>
<session version="1.0">
<refactoring accessors="true" comment="Delete element from project &apos;kk&apos;&#x0D;&#x0A;- Original project: &apos;kk&apos;&#x0D;&#x0A;- Original element: &apos;kk.ll.java&apos;" description="Delete element" element1="/src&lt;kk{ll.java" elements="1" flags="589830" id="org.eclipse.jdt.ui.delete" resources="0" stamp="1551004966653" subPackages="false" version="1.0"/>
</session>