<?xml version="1.0" encoding="UTF-8"?>
<session version="1.0">
<refactoring accessors="true" comment="Delete element from project &apos;mybatis13&apos;&#x0D;&#x0A;- Original project: &apos;mybatis13&apos;&#x0D;&#x0A;- Original element: &apos;mybatis13/src/main/java/com.zb.util&apos;" description="Delete element" element1="/src\/main\/java&lt;com.zb.util" elements="1" flags="589830" id="org.eclipse.jdt.ui.delete" resources="0" stamp="1557407108401" subPackages="false" version="1.0"/>
</session>