<?xml version="1.0" encoding="UTF-8"?>
<session version="1.0">
<refactoring comment="Rename compilation unit &apos;com.baidu.aip.wo.AipFace.java&apos; to &apos;Sample.java&apos;&#x0D;&#x0A;- Original project: &apos;java-sdk&apos;&#x0D;&#x0A;- Original element: &apos;com.baidu.aip.wo.AipFace.java&apos;&#x0D;&#x0A;- Renamed element: &apos;com.baidu.aip.wo.Sample.java&apos;" description="Rename compilation unit &apos;AipFace.java&apos;" flags="2" id="org.eclipse.jdt.ui.rename.compilationunit" input="/src\/main\/java&lt;com.baidu.aip.wo{AipFace.java" name="Sample.java" references="false" stamp="1553254447774" version="1.0"/>
</session>