INDEX VERSION 1.3+C:\Users\lc\workspace\.metadata\.plugins\org.eclipse.wst.jsdt.core\indexes
1084035290.index
3650371936.index
431341061.index
1500549298.index
2286636531.index
2712076801.index
3941809097.index
1244652929.index
490411556.index
4014263395.index
2983289288.index
3948354756.index
3435648363.index
