127.0.0.1 - - [24/Jun/2019:13:52:17 +0800] "GET / HTTP/1.1" 404 1068
0:0:0:0:0:0:0:1 - - [24/Jun/2019:13:53:51 +0800] "GET /demo HTTP/1.1" 404 1072
0:0:0:0:0:0:0:1 - - [24/Jun/2019:13:53:56 +0800] "GET /text/index.jsp HTTP/1.1" 200 1337
0:0:0:0:0:0:0:1 - - [24/Jun/2019:13:54:00 +0800] "GET /favicon.ico HTTP/1.1" 404 1079
0:0:0:0:0:0:0:1 - - [24/Jun/2019:13:54:00 +0800] "POST /text/showContact.do HTTP/1.1" 200 351
0:0:0:0:0:0:0:1 - - [24/Jun/2019:13:54:07 +0800] "GET /text/add.jsp HTTP/1.1" 200 856
0:0:0:0:0:0:0:1 - - [24/Jun/2019:13:54:19 +0800] "POST /text/add.do HTTP/1.1" 200 1337
0:0:0:0:0:0:0:1 - - [24/Jun/2019:13:54:19 +0800] "POST /text/showContact.do HTTP/1.1" 200 432
0:0:0:0:0:0:0:1 - - [24/Jun/2019:14:17:28 +0800] "POST /text/add.do HTTP/1.1" 200 1337
0:0:0:0:0:0:0:1 - - [24/Jun/2019:14:17:28 +0800] "POST /text/showContact.do HTTP/1.1" 200 513
0:0:0:0:0:0:0:1 - - [24/Jun/2019:14:17:30 +0800] "POST /text/add.do HTTP/1.1" 200 1337
0:0:0:0:0:0:0:1 - - [24/Jun/2019:14:17:31 +0800] "POST /text/showContact.do HTTP/1.1" 200 594
0:0:0:0:0:0:0:1 - - [24/Jun/2019:14:17:32 +0800] "GET /text/add.jsp HTTP/1.1" 200 826
0:0:0:0:0:0:0:1 - - [24/Jun/2019:14:17:42 +0800] "POST /text/add.do HTTP/1.1" 200 1337
0:0:0:0:0:0:0:1 - - [24/Jun/2019:14:17:42 +0800] "POST /text/showContact.do HTTP/1.1" 200 669
0:0:0:0:0:0:0:1 - - [24/Jun/2019:14:17:45 +0800] "GET /text/add.jsp HTTP/1.1" 200 826
0:0:0:0:0:0:0:1 - - [24/Jun/2019:14:18:10 +0800] "POST /text/add.do HTTP/1.1" 200 1337
0:0:0:0:0:0:0:1 - - [24/Jun/2019:14:18:10 +0800] "POST /text/showContact.do HTTP/1.1" 200 780
0:0:0:0:0:0:0:1 - - [24/Jun/2019:14:18:20 +0800] "GET /text/add.jsp HTTP/1.1" 200 826
0:0:0:0:0:0:0:1 - - [24/Jun/2019:14:18:27 +0800] "POST /text/add.do HTTP/1.1" 200 1337
0:0:0:0:0:0:0:1 - - [24/Jun/2019:14:18:27 +0800] "POST /text/showContact.do HTTP/1.1" 200 856
0:0:0:0:0:0:0:1 - - [24/Jun/2019:14:18:29 +0800] "GET /text/add.jsp HTTP/1.1" 200 826
0:0:0:0:0:0:0:1 - - [24/Jun/2019:14:18:38 +0800] "POST /text/add.do HTTP/1.1" 200 1337
0:0:0:0:0:0:0:1 - - [24/Jun/2019:14:18:38 +0800] "POST /text/showContact.do HTTP/1.1" 200 935
0:0:0:0:0:0:0:1 - - [24/Jun/2019:14:23:54 +0800] "GET /text/ HTTP/1.1" 200 1337
0:0:0:0:0:0:0:1 - - [24/Jun/2019:14:23:54 +0800] "POST /text/showContact.do HTTP/1.1" 200 935
0:0:0:0:0:0:0:1 - - [24/Jun/2019:14:24:05 +0800] "GET /text/ HTTP/1.1" 200 1337
0:0:0:0:0:0:0:1 - - [24/Jun/2019:14:24:05 +0800] "POST /text/showContact.do HTTP/1.1" 200 935
0:0:0:0:0:0:0:1 - - [24/Jun/2019:14:24:05 +0800] "GET /text/ HTTP/1.1" 200 1337
0:0:0:0:0:0:0:1 - - [24/Jun/2019:14:24:06 +0800] "POST /text/showContact.do HTTP/1.1" 200 935
0:0:0:0:0:0:0:1 - - [24/Jun/2019:14:24:06 +0800] "GET /text/ HTTP/1.1" 200 1337
0:0:0:0:0:0:0:1 - - [24/Jun/2019:14:24:06 +0800] "POST /text/showContact.do HTTP/1.1" 200 935
127.0.0.1 - - [24/Jun/2019:17:23:10 +0800] "GET / HTTP/1.1" 404 1068
0:0:0:0:0:0:0:1 - - [24/Jun/2019:17:23:13 +0800] "GET /text HTTP/1.1" 302 -
0:0:0:0:0:0:0:1 - - [24/Jun/2019:17:23:13 +0800] "GET /text/ HTTP/1.1" 200 1374
0:0:0:0:0:0:0:1 - - [24/Jun/2019:17:23:13 +0800] "GET /favicon.ico HTTP/1.1" 404 1079
0:0:0:0:0:0:0:1 - - [24/Jun/2019:17:23:13 +0800] "POST /text/showContact.do HTTP/1.1" 500 10171
0:0:0:0:0:0:0:1 - - [24/Jun/2019:17:23:20 +0800] "GET /text/showContact.do HTTP/1.1" 500 10171
0:0:0:0:0:0:0:1 - - [24/Jun/2019:17:23:28 +0800] "GET /favicon.ico HTTP/1.1" 404 1079
0:0:0:0:0:0:0:1 - - [24/Jun/2019:17:23:33 +0800] "GET /text/ HTTP/1.1" 200 1374
0:0:0:0:0:0:0:1 - - [24/Jun/2019:17:23:33 +0800] "POST /text/showContact.do HTTP/1.1" 500 10171
0:0:0:0:0:0:0:1 - - [24/Jun/2019:17:23:56 +0800] "GET /text/showContact.do HTTP/1.1" 500 10171
0:0:0:0:0:0:0:1 - - [24/Jun/2019:17:26:19 +0800] "GET /text/showContact.do HTTP/1.1" 500 10171
0:0:0:0:0:0:0:1 - - [24/Jun/2019:17:26:20 +0800] "GET /text/showContact.do HTTP/1.1" 500 10171
0:0:0:0:0:0:0:1 - - [24/Jun/2019:17:26:20 +0800] "GET /text/showContact.do HTTP/1.1" 500 10171
0:0:0:0:0:0:0:1 - - [24/Jun/2019:17:26:20 +0800] "GET /text/showContact.do HTTP/1.1" 500 10171
0:0:0:0:0:0:0:1 - - [24/Jun/2019:17:26:20 +0800] "POST /text/showContact.do HTTP/1.1" 500 10171
0:0:0:0:0:0:0:1 - - [24/Jun/2019:17:26:24 +0800] "GET /text/ HTTP/1.1" 200 1374
0:0:0:0:0:0:0:1 - - [24/Jun/2019:17:26:24 +0800] "POST /text/showContact.do HTTP/1.1" 200 935
0:0:0:0:0:0:0:1 - - [24/Jun/2019:17:26:30 +0800] "GET /text/ HTTP/1.1" 200 1374
0:0:0:0:0:0:0:1 - - [24/Jun/2019:17:26:30 +0800] "POST /text/showContact.do HTTP/1.1" 200 935
0:0:0:0:0:0:0:1 - - [24/Jun/2019:17:26:31 +0800] "GET /text/ HTTP/1.1" 200 1374
0:0:0:0:0:0:0:1 - - [24/Jun/2019:17:26:31 +0800] "POST /text/showContact.do HTTP/1.1" 200 935
0:0:0:0:0:0:0:1 - - [24/Jun/2019:17:26:31 +0800] "GET /text/ HTTP/1.1" 200 1374
0:0:0:0:0:0:0:1 - - [24/Jun/2019:17:26:31 +0800] "POST /text/showContact.do HTTP/1.1" 200 935
0:0:0:0:0:0:0:1 - - [24/Jun/2019:17:26:31 +0800] "GET /text/ HTTP/1.1" 200 1374
0:0:0:0:0:0:0:1 - - [24/Jun/2019:17:26:31 +0800] "POST /text/showContact.do HTTP/1.1" 200 935
0:0:0:0:0:0:0:1 - - [24/Jun/2019:17:26:31 +0800] "GET /text/ HTTP/1.1" 200 1374
0:0:0:0:0:0:0:1 - - [24/Jun/2019:17:26:31 +0800] "POST /text/showContact.do HTTP/1.1" 200 935
0:0:0:0:0:0:0:1 - - [24/Jun/2019:17:26:31 +0800] "GET /text/ HTTP/1.1" 200 1374
0:0:0:0:0:0:0:1 - - [24/Jun/2019:17:26:32 +0800] "POST /text/showContact.do HTTP/1.1" 200 935
0:0:0:0:0:0:0:1 - - [24/Jun/2019:17:26:32 +0800] "GET /text/ HTTP/1.1" 200 1374
0:0:0:0:0:0:0:1 - - [24/Jun/2019:17:26:32 +0800] "POST /text/showContact.do HTTP/1.1" 200 935
0:0:0:0:0:0:0:1 - - [24/Jun/2019:17:26:32 +0800] "GET /text/ HTTP/1.1" 200 1374
0:0:0:0:0:0:0:1 - - [24/Jun/2019:17:26:32 +0800] "POST /text/showContact.do HTTP/1.1" 200 935
127.0.0.1 - - [24/Jun/2019:17:26:43 +0800] "GET / HTTP/1.1" 404 1068
0:0:0:0:0:0:0:1 - - [24/Jun/2019:17:26:44 +0800] "GET /text/ HTTP/1.1" 200 1374
0:0:0:0:0:0:0:1 - - [24/Jun/2019:17:26:44 +0800] "POST /text/showContact.do HTTP/1.1" 500 10171
0:0:0:0:0:0:0:1 - - [24/Jun/2019:17:27:07 +0800] "GET /text/ HTTP/1.1" 200 1374
0:0:0:0:0:0:0:1 - - [24/Jun/2019:17:27:07 +0800] "POST /text/showContact.do HTTP/1.1" 500 10171
0:0:0:0:0:0:0:1 - - [24/Jun/2019:17:27:08 +0800] "GET /text/ HTTP/1.1" 200 1374
0:0:0:0:0:0:0:1 - - [24/Jun/2019:17:27:08 +0800] "POST /text/showContact.do HTTP/1.1" 500 10171
0:0:0:0:0:0:0:1 - - [24/Jun/2019:17:27:19 +0800] "GET /text/showContact.do HTTP/1.1" 500 10171
0:0:0:0:0:0:0:1 - - [24/Jun/2019:17:28:14 +0800] "GET /text/showContact.do HTTP/1.1" 500 10171
0:0:0:0:0:0:0:1 - - [24/Jun/2019:17:28:14 +0800] "GET /text/showContact.do HTTP/1.1" 500 10171
0:0:0:0:0:0:0:1 - - [24/Jun/2019:17:28:15 +0800] "GET /text/showContact.do HTTP/1.1" 500 10171
0:0:0:0:0:0:0:1 - - [24/Jun/2019:17:28:15 +0800] "GET /text/showContact.do HTTP/1.1" 500 10171
0:0:0:0:0:0:0:1 - - [24/Jun/2019:17:28:15 +0800] "GET /text/showContact.do HTTP/1.1" 500 10171
0:0:0:0:0:0:0:1 - - [24/Jun/2019:17:28:15 +0800] "GET /text/showContact.do HTTP/1.1" 500 10171
0:0:0:0:0:0:0:1 - - [24/Jun/2019:17:28:17 +0800] "GET /text/showContact.do HTTP/1.1" 500 10171
0:0:0:0:0:0:0:1 - - [24/Jun/2019:17:28:17 +0800] "GET /text/showContact.do HTTP/1.1" 500 10171
0:0:0:0:0:0:0:1 - - [24/Jun/2019:17:28:17 +0800] "GET /text/showContact.do HTTP/1.1" 500 10171
0:0:0:0:0:0:0:1 - - [24/Jun/2019:17:28:17 +0800] "GET /text/showContact.do HTTP/1.1" 500 10171
0:0:0:0:0:0:0:1 - - [24/Jun/2019:17:28:40 +0800] "GET /text/showContact.do HTTP/1.1" 200 935
0:0:0:0:0:0:0:1 - - [24/Jun/2019:17:32:39 +0800] "GET /text/ HTTP/1.1" 200 1374
0:0:0:0:0:0:0:1 - - [24/Jun/2019:17:32:40 +0800] "POST /text/showContact.do HTTP/1.1" 200 935
0:0:0:0:0:0:0:1 - - [24/Jun/2019:17:32:40 +0800] "GET /text/ HTTP/1.1" 200 1374
0:0:0:0:0:0:0:1 - - [24/Jun/2019:17:32:40 +0800] "POST /text/showContact.do HTTP/1.1" 200 935
0:0:0:0:0:0:0:1 - - [24/Jun/2019:17:32:40 +0800] "GET /text/ HTTP/1.1" 200 1374
0:0:0:0:0:0:0:1 - - [24/Jun/2019:17:32:40 +0800] "POST /text/showContact.do HTTP/1.1" 200 935
0:0:0:0:0:0:0:1 - - [24/Jun/2019:17:32:40 +0800] "GET /text/ HTTP/1.1" 200 1374
0:0:0:0:0:0:0:1 - - [24/Jun/2019:17:32:40 +0800] "POST /text/showContact.do HTTP/1.1" 200 935
0:0:0:0:0:0:0:1 - - [24/Jun/2019:17:32:41 +0800] "GET /text/ HTTP/1.1" 200 1374
0:0:0:0:0:0:0:1 - - [24/Jun/2019:17:32:41 +0800] "POST /text/showContact.do HTTP/1.1" 200 935
0:0:0:0:0:0:0:1 - - [24/Jun/2019:17:32:41 +0800] "GET /text/ HTTP/1.1" 200 1374
0:0:0:0:0:0:0:1 - - [24/Jun/2019:17:32:41 +0800] "POST /text/showContact.do HTTP/1.1" 200 935
0:0:0:0:0:0:0:1 - - [24/Jun/2019:17:32:41 +0800] "GET /text/ HTTP/1.1" 200 1374
0:0:0:0:0:0:0:1 - - [24/Jun/2019:17:32:41 +0800] "POST /text/showContact.do HTTP/1.1" 200 935
0:0:0:0:0:0:0:1 - - [24/Jun/2019:17:32:41 +0800] "GET /text/ HTTP/1.1" 200 1374
0:0:0:0:0:0:0:1 - - [24/Jun/2019:17:32:41 +0800] "POST /text/showContact.do HTTP/1.1" 200 935
0:0:0:0:0:0:0:1 - - [24/Jun/2019:17:32:42 +0800] "GET /text/ HTTP/1.1" 200 1374
0:0:0:0:0:0:0:1 - - [24/Jun/2019:17:32:42 +0800] "POST /text/showContact.do HTTP/1.1" 200 935
0:0:0:0:0:0:0:1 - - [24/Jun/2019:17:32:42 +0800] "GET /text/ HTTP/1.1" 200 1374
0:0:0:0:0:0:0:1 - - [24/Jun/2019:17:32:42 +0800] "POST /text/showContact.do HTTP/1.1" 200 935
0:0:0:0:0:0:0:1 - - [24/Jun/2019:17:32:42 +0800] "GET /text/ HTTP/1.1" 200 1374
0:0:0:0:0:0:0:1 - - [24/Jun/2019:17:32:42 +0800] "POST /text/showContact.do HTTP/1.1" 200 935
0:0:0:0:0:0:0:1 - - [24/Jun/2019:17:32:42 +0800] "GET /text/ HTTP/1.1" 200 1374
0:0:0:0:0:0:0:1 - - [24/Jun/2019:17:32:42 +0800] "POST /text/showContact.do HTTP/1.1" 200 935
0:0:0:0:0:0:0:1 - - [24/Jun/2019:17:32:42 +0800] "GET /text/ HTTP/1.1" 200 1374
0:0:0:0:0:0:0:1 - - [24/Jun/2019:17:32:42 +0800] "POST /text/showContact.do HTTP/1.1" 200 935
0:0:0:0:0:0:0:1 - - [24/Jun/2019:17:32:42 +0800] "GET /text/ HTTP/1.1" 200 1374
0:0:0:0:0:0:0:1 - - [24/Jun/2019:17:32:42 +0800] "POST /text/showContact.do HTTP/1.1" 200 935
0:0:0:0:0:0:0:1 - - [24/Jun/2019:17:32:43 +0800] "GET /text/ HTTP/1.1" 200 1374
0:0:0:0:0:0:0:1 - - [24/Jun/2019:17:32:43 +0800] "POST /text/showContact.do HTTP/1.1" 200 935
0:0:0:0:0:0:0:1 - - [24/Jun/2019:17:43:08 +0800] "GET /text/ HTTP/1.1" 200 1374
0:0:0:0:0:0:0:1 - - [24/Jun/2019:17:43:08 +0800] "POST /text/showContact.do HTTP/1.1" 200 935
0:0:0:0:0:0:0:1 - - [24/Jun/2019:17:43:08 +0800] "GET /text/ HTTP/1.1" 200 1374
0:0:0:0:0:0:0:1 - - [24/Jun/2019:17:43:08 +0800] "POST /text/showContact.do HTTP/1.1" 200 935
0:0:0:0:0:0:0:1 - - [24/Jun/2019:17:44:48 +0800] "GET /text/showContact.do HTTP/1.1" 200 935
0:0:0:0:0:0:0:1 - - [24/Jun/2019:17:44:50 +0800] "GET /text/add.jsp HTTP/1.1" 200 826
0:0:0:0:0:0:0:1 - - [24/Jun/2019:17:44:51 +0800] "POST /text/showContact.do HTTP/1.1" 200 935
0:0:0:0:0:0:0:1 - - [24/Jun/2019:17:44:52 +0800] "GET /text/finByid.do?id=2 HTTP/1.1" 500 12937
0:0:0:0:0:0:0:1 - - [24/Jun/2019:17:45:25 +0800] "POST /text/showContact.do HTTP/1.1" 200 935
0:0:0:0:0:0:0:1 - - [24/Jun/2019:17:45:27 +0800] "GET /text/finByid.do?id=5 HTTP/1.1" 500 12937
0:0:0:0:0:0:0:1 - - [24/Jun/2019:17:46:19 +0800] "GET /text/finByid.do?id=5 HTTP/1.1" 500 12937
0:0:0:0:0:0:0:1 - - [24/Jun/2019:17:46:21 +0800] "GET /text/finByid.do?id=5 HTTP/1.1" 500 6831
0:0:0:0:0:0:0:1 - - [24/Jun/2019:17:46:21 +0800] "GET /text/finByid.do?id=5 HTTP/1.1" 500 6831
0:0:0:0:0:0:0:1 - - [24/Jun/2019:17:46:21 +0800] "GET /text/finByid.do?id=5 HTTP/1.1" 500 6831
0:0:0:0:0:0:0:1 - - [24/Jun/2019:17:46:21 +0800] "GET /text/finByid.do?id=5 HTTP/1.1" 500 6831
0:0:0:0:0:0:0:1 - - [24/Jun/2019:17:46:21 +0800] "GET /text/finByid.do?id=5 HTTP/1.1" 500 6831
0:0:0:0:0:0:0:1 - - [24/Jun/2019:17:46:22 +0800] "GET /text/finByid.do?id=5 HTTP/1.1" 500 6831
0:0:0:0:0:0:0:1 - - [24/Jun/2019:17:46:22 +0800] "GET /text/finByid.do?id=5 HTTP/1.1" 500 6831
0:0:0:0:0:0:0:1 - - [24/Jun/2019:17:46:22 +0800] "GET /text/finByid.do?id=5 HTTP/1.1" 500 6831
0:0:0:0:0:0:0:1 - - [24/Jun/2019:17:46:22 +0800] "GET /text/finByid.do?id=5 HTTP/1.1" 500 6831
0:0:0:0:0:0:0:1 - - [24/Jun/2019:17:46:56 +0800] "GET /text/finByid.do?id=5 HTTP/1.1" 200 938
0:0:0:0:0:0:0:1 - - [24/Jun/2019:17:47:19 +0800] "GET /text/finByid.do?id=5 HTTP/1.1" 200 938
0:0:0:0:0:0:0:1 - - [24/Jun/2019:17:47:19 +0800] "GET /text/finByid.do?id=5 HTTP/1.1" 200 938
0:0:0:0:0:0:0:1 - - [24/Jun/2019:17:47:20 +0800] "GET /text/finByid.do?id=5 HTTP/1.1" 200 938
0:0:0:0:0:0:0:1 - - [24/Jun/2019:17:47:20 +0800] "GET /text/finByid.do?id=5 HTTP/1.1" 200 938
0:0:0:0:0:0:0:1 - - [24/Jun/2019:17:47:20 +0800] "GET /text/finByid.do?id=5 HTTP/1.1" 200 938
0:0:0:0:0:0:0:1 - - [24/Jun/2019:17:47:20 +0800] "GET /text/finByid.do?id=5 HTTP/1.1" 200 938
0:0:0:0:0:0:0:1 - - [24/Jun/2019:17:47:21 +0800] "GET /text/finByid.do?id=5 HTTP/1.1" 200 938
0:0:0:0:0:0:0:1 - - [24/Jun/2019:17:47:21 +0800] "GET /text/finByid.do?id=5 HTTP/1.1" 200 938
0:0:0:0:0:0:0:1 - - [24/Jun/2019:17:47:21 +0800] "POST /text/showContact.do HTTP/1.1" 200 935
0:0:0:0:0:0:0:1 - - [24/Jun/2019:17:47:22 +0800] "GET /text/finByid.do?id=1 HTTP/1.1" 200 976
0:0:0:0:0:0:0:1 - - [24/Jun/2019:17:47:28 +0800] "POST /text/showContact.do HTTP/1.1" 200 935
0:0:0:0:0:0:0:1 - - [24/Jun/2019:17:47:30 +0800] "GET /text/finByid.do?id=1 HTTP/1.1" 200 976
0:0:0:0:0:0:0:1 - - [24/Jun/2019:17:47:34 +0800] "POST /text/update.do HTTP/1.1" 404 1042
0:0:0:0:0:0:0:1 - - [24/Jun/2019:17:47:50 +0800] "GET /text/finByid.do?id=1 HTTP/1.1" 200 976
0:0:0:0:0:0:0:1 - - [24/Jun/2019:17:47:54 +0800] "POST /text/update.do HTTP/1.1" 200 1374
0:0:0:0:0:0:0:1 - - [24/Jun/2019:17:47:54 +0800] "POST /text/showContact.do HTTP/1.1" 200 915
0:0:0:0:0:0:0:1 - - [24/Jun/2019:17:47:58 +0800] "GET /text/finByid.do?id=1 HTTP/1.1" 200 956
0:0:0:0:0:0:0:1 - - [24/Jun/2019:17:48:03 +0800] "POST /text/update.do HTTP/1.1" 200 1374
0:0:0:0:0:0:0:1 - - [24/Jun/2019:17:48:03 +0800] "POST /text/showContact.do HTTP/1.1" 200 905
0:0:0:0:0:0:0:1 - - [24/Jun/2019:17:48:23 +0800] "POST /text/update.do HTTP/1.1" 200 1374
0:0:0:0:0:0:0:1 - - [24/Jun/2019:17:48:23 +0800] "POST /text/update.do HTTP/1.1" 200 1374
0:0:0:0:0:0:0:1 - - [24/Jun/2019:17:48:23 +0800] "POST /text/update.do HTTP/1.1" 200 1374
0:0:0:0:0:0:0:1 - - [24/Jun/2019:17:48:23 +0800] "POST /text/showContact.do HTTP/1.1" 200 905
0:0:0:0:0:0:0:1 - - [24/Jun/2019:17:48:23 +0800] "POST /text/update.do HTTP/1.1" 200 1374
0:0:0:0:0:0:0:1 - - [24/Jun/2019:17:48:23 +0800] "POST /text/showContact.do HTTP/1.1" 200 905
0:0:0:0:0:0:0:1 - - [24/Jun/2019:17:48:23 +0800] "POST /text/update.do HTTP/1.1" 200 1374
0:0:0:0:0:0:0:1 - - [24/Jun/2019:17:48:23 +0800] "POST /text/update.do HTTP/1.1" 200 1374
0:0:0:0:0:0:0:1 - - [24/Jun/2019:17:48:23 +0800] "POST /text/update.do HTTP/1.1" 200 1374
0:0:0:0:0:0:0:1 - - [24/Jun/2019:17:48:23 +0800] "POST /text/update.do HTTP/1.1" 200 1374
0:0:0:0:0:0:0:1 - - [24/Jun/2019:17:48:24 +0800] "POST /text/showContact.do HTTP/1.1" 200 905
0:0:0:0:0:0:0:1 - - [24/Jun/2019:17:48:24 +0800] "POST /text/update.do HTTP/1.1" 200 1374
0:0:0:0:0:0:0:1 - - [24/Jun/2019:17:48:24 +0800] "POST /text/update.do HTTP/1.1" 200 1374
0:0:0:0:0:0:0:1 - - [24/Jun/2019:17:48:25 +0800] "GET /text/finByid.do?id=1 HTTP/1.1" 200 946
127.0.0.1 - - [24/Jun/2019:17:48:49 +0800] "GET / HTTP/1.1" 404 1068
0:0:0:0:0:0:0:1 - - [24/Jun/2019:17:48:53 +0800] "POST /text/update.do HTTP/1.1" 200 1374
0:0:0:0:0:0:0:1 - - [24/Jun/2019:17:48:53 +0800] "POST /text/showContact.do HTTP/1.1" 200 906
0:0:0:0:0:0:0:1 - - [24/Jun/2019:17:48:54 +0800] "POST /text/update.do HTTP/1.1" 200 1374
0:0:0:0:0:0:0:1 - - [24/Jun/2019:17:48:54 +0800] "POST /text/showContact.do HTTP/1.1" 200 906
0:0:0:0:0:0:0:1 - - [24/Jun/2019:17:48:55 +0800] "GET /text/finByid.do?id=1 HTTP/1.1" 200 947
0:0:0:0:0:0:0:1 - - [24/Jun/2019:17:49:09 +0800] "POST /text/update.do HTTP/1.1" 200 1374
0:0:0:0:0:0:0:1 - - [24/Jun/2019:17:49:10 +0800] "POST /text/showContact.do HTTP/1.1" 200 910
0:0:0:0:0:0:0:1 - - [24/Jun/2019:17:49:45 +0800] "POST /text/update.do HTTP/1.1" 200 1374
0:0:0:0:0:0:0:1 - - [24/Jun/2019:17:49:46 +0800] "POST /text/showContact.do HTTP/1.1" 200 910
0:0:0:0:0:0:0:1 - - [24/Jun/2019:17:49:46 +0800] "POST /text/update.do HTTP/1.1" 200 1374
0:0:0:0:0:0:0:1 - - [24/Jun/2019:17:49:46 +0800] "POST /text/update.do HTTP/1.1" 200 1374
0:0:0:0:0:0:0:1 - - [24/Jun/2019:17:49:47 +0800] "POST /text/showContact.do HTTP/1.1" 200 910
127.0.0.1 - - [24/Jun/2019:17:51:25 +0800] "GET / HTTP/1.1" 404 1068
0:0:0:0:0:0:0:1 - - [24/Jun/2019:17:57:23 +0800] "GET /text/showContact.do HTTP/1.1" 200 910
0:0:0:0:0:0:0:1 - - [24/Jun/2019:17:57:23 +0800] "GET /text/showContact.do HTTP/1.1" 200 910
0:0:0:0:0:0:0:1 - - [24/Jun/2019:17:57:24 +0800] "GET /text/showContact.do HTTP/1.1" 200 910
0:0:0:0:0:0:0:1 - - [24/Jun/2019:17:57:24 +0800] "GET /text/showContact.do HTTP/1.1" 200 910
0:0:0:0:0:0:0:1 - - [24/Jun/2019:17:57:29 +0800] "POST /text/update.do HTTP/1.1" 200 1374
0:0:0:0:0:0:0:1 - - [24/Jun/2019:17:57:29 +0800] "POST /text/showContact.do HTTP/1.1" 200 910
0:0:0:0:0:0:0:1 - - [24/Jun/2019:17:57:30 +0800] "POST /text/update.do HTTP/1.1" 200 1374
0:0:0:0:0:0:0:1 - - [24/Jun/2019:17:57:30 +0800] "POST /text/showContact.do HTTP/1.1" 200 910
0:0:0:0:0:0:0:1 - - [24/Jun/2019:17:57:30 +0800] "POST /text/update.do HTTP/1.1" 200 1374
0:0:0:0:0:0:0:1 - - [24/Jun/2019:17:57:30 +0800] "POST /text/showContact.do HTTP/1.1" 200 910
0:0:0:0:0:0:0:1 - - [24/Jun/2019:17:57:31 +0800] "GET /text/finByid.do?id=1 HTTP/1.1" 200 984
0:0:0:0:0:0:0:1 - - [24/Jun/2019:17:57:39 +0800] "POST /text/update.do HTTP/1.1" 200 1374
0:0:0:0:0:0:0:1 - - [24/Jun/2019:17:57:39 +0800] "POST /text/showContact.do HTTP/1.1" 200 907
127.0.0.1 - - [24/Jun/2019:17:58:08 +0800] "GET / HTTP/1.1" 404 1068
0:0:0:0:0:0:0:1 - - [24/Jun/2019:17:58:09 +0800] "POST /text/update.do HTTP/1.1" 200 1374
0:0:0:0:0:0:0:1 - - [24/Jun/2019:17:58:09 +0800] "POST /text/showContact.do HTTP/1.1" 200 907
0:0:0:0:0:0:0:1 - - [24/Jun/2019:17:58:10 +0800] "GET /text/finByid.do?id=1 HTTP/1.1" 200 992
0:0:0:0:0:0:0:1 - - [24/Jun/2019:17:58:19 +0800] "POST /text/update.do HTTP/1.1" 200 1374
0:0:0:0:0:0:0:1 - - [24/Jun/2019:17:58:19 +0800] "POST /text/showContact.do HTTP/1.1" 200 910
127.0.0.1 - - [24/Jun/2019:17:59:36 +0800] "GET / HTTP/1.1" 404 1068
0:0:0:0:0:0:0:1 - - [24/Jun/2019:17:59:37 +0800] "POST /text/update.do HTTP/1.1" 200 1374
0:0:0:0:0:0:0:1 - - [24/Jun/2019:17:59:37 +0800] "POST /text/showContact.do HTTP/1.1" 200 910
0:0:0:0:0:0:0:1 - - [24/Jun/2019:17:59:40 +0800] "POST /text/update.do HTTP/1.1" 200 1374
0:0:0:0:0:0:0:1 - - [24/Jun/2019:17:59:40 +0800] "POST /text/showContact.do HTTP/1.1" 200 910
0:0:0:0:0:0:0:1 - - [24/Jun/2019:17:59:40 +0800] "POST /text/update.do HTTP/1.1" 200 1374
0:0:0:0:0:0:0:1 - - [24/Jun/2019:17:59:40 +0800] "POST /text/showContact.do HTTP/1.1" 200 910
0:0:0:0:0:0:0:1 - - [24/Jun/2019:17:59:40 +0800] "POST /text/update.do HTTP/1.1" 200 1374
0:0:0:0:0:0:0:1 - - [24/Jun/2019:17:59:40 +0800] "POST /text/showContact.do HTTP/1.1" 200 910
0:0:0:0:0:0:0:1 - - [24/Jun/2019:17:59:40 +0800] "POST /text/update.do HTTP/1.1" 200 1374
0:0:0:0:0:0:0:1 - - [24/Jun/2019:17:59:41 +0800] "POST /text/showContact.do HTTP/1.1" 200 910
0:0:0:0:0:0:0:1 - - [24/Jun/2019:17:59:41 +0800] "POST /text/update.do HTTP/1.1" 200 1374
0:0:0:0:0:0:0:1 - - [24/Jun/2019:17:59:41 +0800] "POST /text/showContact.do HTTP/1.1" 200 910
0:0:0:0:0:0:0:1 - - [24/Jun/2019:17:59:41 +0800] "GET /text/finByid.do?id=1 HTTP/1.1" 200 995
0:0:0:0:0:0:0:1 - - [24/Jun/2019:17:59:48 +0800] "POST /text/update.do HTTP/1.1" 200 1374
0:0:0:0:0:0:0:1 - - [24/Jun/2019:17:59:48 +0800] "POST /text/showContact.do HTTP/1.1" 200 908
0:0:0:0:0:0:0:1 - - [24/Jun/2019:19:31:36 +0800] "POST /text/update.do HTTP/1.1" 200 1374
0:0:0:0:0:0:0:1 - - [24/Jun/2019:19:31:36 +0800] "GET /favicon.ico HTTP/1.1" 404 1079
0:0:0:0:0:0:0:1 - - [24/Jun/2019:19:31:36 +0800] "POST /text/showContact.do HTTP/1.1" 200 908
0:0:0:0:0:0:0:1 - - [24/Jun/2019:21:03:00 +0800] "POST /text/update.do HTTP/1.1" 200 1356
0:0:0:0:0:0:0:1 - - [24/Jun/2019:21:03:00 +0800] "POST /text/showContact.do HTTP/1.1" 200 908
0:0:0:0:0:0:0:1 - - [24/Jun/2019:21:03:16 +0800] "GET /text/finByid.do?id=2 HTTP/1.1" 200 1016
0:0:0:0:0:0:0:1 - - [24/Jun/2019:21:03:18 +0800] "POST /text/update.do HTTP/1.1" 200 1356
0:0:0:0:0:0:0:1 - - [24/Jun/2019:21:03:18 +0800] "POST /text/showContact.do HTTP/1.1" 200 892
0:0:0:0:0:0:0:1 - - [24/Jun/2019:21:03:19 +0800] "GET /text/finByid.do?id=3 HTTP/1.1" 200 1017
0:0:0:0:0:0:0:1 - - [24/Jun/2019:21:03:21 +0800] "POST /text/update.do HTTP/1.1" 200 1356
0:0:0:0:0:0:0:1 - - [24/Jun/2019:21:03:21 +0800] "POST /text/showContact.do HTTP/1.1" 200 878
0:0:0:0:0:0:0:1 - - [24/Jun/2019:21:03:23 +0800] "GET /text/finByid.do?id=7 HTTP/1.1" 200 976
0:0:0:0:0:0:0:1 - - [24/Jun/2019:21:03:24 +0800] "POST /text/update.do HTTP/1.1" 200 1356
0:0:0:0:0:0:0:1 - - [24/Jun/2019:21:03:24 +0800] "POST /text/showContact.do HTTP/1.1" 200 878
0:0:0:0:0:0:0:1 - - [24/Jun/2019:21:03:41 +0800] "GET /text/add.jsp HTTP/1.1" 200 826
0:0:0:0:0:0:0:1 - - [24/Jun/2019:21:32:34 +0800] "GET /text/add.jsp HTTP/1.1" 200 826
0:0:0:0:0:0:0:1 - - [24/Jun/2019:22:35:43 +0800] "GET /text/add.jsp HTTP/1.1" 200 826
0:0:0:0:0:0:0:1 - - [24/Jun/2019:22:35:44 +0800] "GET /text/add.jsp HTTP/1.1" 200 826
0:0:0:0:0:0:0:1 - - [24/Jun/2019:22:35:44 +0800] "GET /text/add.jsp HTTP/1.1" 200 826
0:0:0:0:0:0:0:1 - - [24/Jun/2019:22:35:44 +0800] "GET /text/add.jsp HTTP/1.1" 200 826
0:0:0:0:0:0:0:1 - - [24/Jun/2019:22:35:44 +0800] "GET /text/add.jsp HTTP/1.1" 200 826
0:0:0:0:0:0:0:1 - - [24/Jun/2019:22:35:44 +0800] "GET /text/add.jsp HTTP/1.1" 200 826
0:0:0:0:0:0:0:1 - - [24/Jun/2019:22:35:45 +0800] "GET /text/add.jsp HTTP/1.1" 200 826
0:0:0:0:0:0:0:1 - - [24/Jun/2019:22:35:45 +0800] "GET /text/add.jsp HTTP/1.1" 200 826
0:0:0:0:0:0:0:1 - - [24/Jun/2019:22:35:45 +0800] "GET /text/add.jsp HTTP/1.1" 200 826
0:0:0:0:0:0:0:1 - - [24/Jun/2019:22:35:52 +0800] "POST /text/add.do HTTP/1.1" 200 1356
0:0:0:0:0:0:0:1 - - [24/Jun/2019:22:35:52 +0800] "POST /text/showContact.do HTTP/1.1" 200 948
127.0.0.1 - - [24/Jun/2019:23:07:30 +0800] "GET / HTTP/1.1" 404 1068
0:0:0:0:0:0:0:1 - - [24/Jun/2019:23:08:56 +0800] "POST /text/add.do HTTP/1.1" 500 4803
0:0:0:0:0:0:0:1 - - [24/Jun/2019:23:08:57 +0800] "POST /text/add.do HTTP/1.1" 500 4803
