0:0:0:0:0:0:0:1 - - [27/Jun/2019:10:15:27 +0800] "GET /test/index.jsp HTTP/1.1" 200 1300
0:0:0:0:0:0:0:1 - - [27/Jun/2019:10:15:29 +0800] "POST /test/Show.do HTTP/1.1" 200 797
0:0:0:0:0:0:0:1 - - [27/Jun/2019:10:15:32 +0800] "GET /test/add.jsp HTTP/1.1" 200 848
0:0:0:0:0:0:0:1 - - [27/Jun/2019:10:15:34 +0800] "POST /test/add.do HTTP/1.1" 200 1300
0:0:0:0:0:0:0:1 - - [27/Jun/2019:10:15:34 +0800] "POST /test/Show.do HTTP/1.1" 200 862
0:0:0:0:0:0:0:1 - - [27/Jun/2019:10:15:43 +0800] "GET /test/finByid.do?id=9 HTTP/1.1" 404 1042
0:0:0:0:0:0:0:1 - - [27/Jun/2019:10:15:44 +0800] "POST /test/Show.do HTTP/1.1" 200 862
0:0:0:0:0:0:0:1 - - [27/Jun/2019:10:15:45 +0800] "GET /test/finByid.do?id=10 HTTP/1.1" 404 1042
0:0:0:0:0:0:0:1 - - [27/Jun/2019:10:15:46 +0800] "POST /test/Show.do HTTP/1.1" 200 862
0:0:0:0:0:0:0:1 - - [27/Jun/2019:10:15:48 +0800] "GET /test/finByid.do?id=14 HTTP/1.1" 404 1042
0:0:0:0:0:0:0:1 - - [27/Jun/2019:10:15:49 +0800] "POST /test/Show.do HTTP/1.1" 200 862
0:0:0:0:0:0:0:1 - - [27/Jun/2019:10:16:33 +0800] "GET /test/finByid.do?id=10 HTTP/1.1" 200 848
127.0.0.1 - - [27/Jun/2019:10:22:49 +0800] "GET / HTTP/1.1" 404 1068
127.0.0.1 - - [27/Jun/2019:10:22:51 +0800] "POST /test/Show.do HTTP/1.1" 200 862
127.0.0.1 - - [27/Jun/2019:10:22:51 +0800] "GET /test/finByid.do?id=10 HTTP/1.1" 200 1059
127.0.0.1 - - [27/Jun/2019:10:22:52 +0800] "POST /test/add.do HTTP/1.1" 200 1300
127.0.0.1 - - [27/Jun/2019:10:22:52 +0800] "POST /test/Show.do HTTP/1.1" 200 927
127.0.0.1 - - [27/Jun/2019:10:23:00 +0800] "POST /test/add.do HTTP/1.1" 200 1300
127.0.0.1 - - [27/Jun/2019:10:23:00 +0800] "POST /test/Show.do HTTP/1.1" 200 992
127.0.0.1 - - [27/Jun/2019:10:23:02 +0800] "GET /test/finByid.do?id=10 HTTP/1.1" 200 1059
127.0.0.1 - - [27/Jun/2019:10:23:12 +0800] "GET /test/finByid.do?id=10 HTTP/1.1" 200 1059
127.0.0.1 - - [27/Jun/2019:10:23:13 +0800] "GET /test/finByid.do?id=10 HTTP/1.1" 200 1059
127.0.0.1 - - [27/Jun/2019:10:23:13 +0800] "GET /test/finByid.do?id=10 HTTP/1.1" 200 1059
127.0.0.1 - - [27/Jun/2019:10:23:14 +0800] "GET /test/finByid.do?id=10 HTTP/1.1" 200 1059
127.0.0.1 - - [27/Jun/2019:10:24:25 +0800] "GET / HTTP/1.1" 404 1068
0:0:0:0:0:0:0:1 - - [27/Jun/2019:10:24:29 +0800] "GET /test/ HTTP/1.1" 200 1300
0:0:0:0:0:0:0:1 - - [27/Jun/2019:10:24:30 +0800] "POST /test/Show.do HTTP/1.1" 200 992
0:0:0:0:0:0:0:1 - - [27/Jun/2019:10:24:31 +0800] "GET /test/ HTTP/1.1" 200 1300
0:0:0:0:0:0:0:1 - - [27/Jun/2019:10:24:31 +0800] "POST /test/Show.do HTTP/1.1" 200 992
0:0:0:0:0:0:0:1 - - [27/Jun/2019:10:24:31 +0800] "GET /test/ HTTP/1.1" 200 1300
0:0:0:0:0:0:0:1 - - [27/Jun/2019:10:24:32 +0800] "POST /test/Show.do HTTP/1.1" 200 992
0:0:0:0:0:0:0:1 - - [27/Jun/2019:10:24:32 +0800] "GET /test/ HTTP/1.1" 200 1300
0:0:0:0:0:0:0:1 - - [27/Jun/2019:10:24:32 +0800] "POST /test/Show.do HTTP/1.1" 200 992
0:0:0:0:0:0:0:1 - - [27/Jun/2019:10:24:33 +0800] "GET /test/finByid.do?id=9 HTTP/1.1" 200 955
0:0:0:0:0:0:0:1 - - [27/Jun/2019:10:24:44 +0800] "POST /test/update.do HTTP/1.1" 200 1300
0:0:0:0:0:0:0:1 - - [27/Jun/2019:10:24:44 +0800] "POST /test/Show.do HTTP/1.1" 200 992
0:0:0:0:0:0:0:1 - - [27/Jun/2019:10:24:48 +0800] "GET /test/finByid.do?id=9 HTTP/1.1" 200 955
0:0:0:0:0:0:0:1 - - [27/Jun/2019:10:24:54 +0800] "POST /test/update.do HTTP/1.1" 200 1300
0:0:0:0:0:0:0:1 - - [27/Jun/2019:10:24:54 +0800] "POST /test/Show.do HTTP/1.1" 200 1005
0:0:0:0:0:0:0:1 - - [27/Jun/2019:10:35:44 +0800] "POST /test/update.do HTTP/1.1" 500 31189
0:0:0:0:0:0:0:1 - - [27/Jun/2019:10:35:46 +0800] "POST /test/update.do HTTP/1.1" 500 31189
127.0.0.1 - - [27/Jun/2019:10:36:07 +0800] "GET / HTTP/1.1" 404 1068
0:0:0:0:0:0:0:1 - - [27/Jun/2019:10:36:14 +0800] "GET /test HTTP/1.1" 302 -
0:0:0:0:0:0:0:1 - - [27/Jun/2019:10:36:14 +0800] "GET /test/ HTTP/1.1" 200 1300
0:0:0:0:0:0:0:1 - - [27/Jun/2019:10:36:15 +0800] "POST /test/Show.do HTTP/1.1" 500 31189
0:0:0:0:0:0:0:1 - - [27/Jun/2019:10:36:15 +0800] "GET /test/ HTTP/1.1" 200 1300
0:0:0:0:0:0:0:1 - - [27/Jun/2019:10:36:16 +0800] "POST /test/Show.do HTTP/1.1" 500 31189
0:0:0:0:0:0:0:1 - - [27/Jun/2019:10:36:16 +0800] "GET /test/ HTTP/1.1" 200 1300
0:0:0:0:0:0:0:1 - - [27/Jun/2019:10:36:17 +0800] "POST /test/Show.do HTTP/1.1" 500 31189
0:0:0:0:0:0:0:1 - - [27/Jun/2019:10:36:17 +0800] "GET /test/ HTTP/1.1" 200 1300
0:0:0:0:0:0:0:1 - - [27/Jun/2019:10:36:17 +0800] "POST /test/Show.do HTTP/1.1" 500 31189
0:0:0:0:0:0:0:1 - - [27/Jun/2019:10:36:17 +0800] "GET /test/ HTTP/1.1" 200 1300
0:0:0:0:0:0:0:1 - - [27/Jun/2019:10:36:17 +0800] "POST /test/Show.do HTTP/1.1" 500 31189
0:0:0:0:0:0:0:1 - - [27/Jun/2019:10:36:40 +0800] "GET /test/ HTTP/1.1" 200 1300
0:0:0:0:0:0:0:1 - - [27/Jun/2019:10:36:40 +0800] "POST /test/Show.do HTTP/1.1" 500 31189
127.0.0.1 - - [27/Jun/2019:10:37:39 +0800] "GET / HTTP/1.1" 404 1068
0:0:0:0:0:0:0:1 - - [27/Jun/2019:10:37:40 +0800] "GET /test/ HTTP/1.1" 200 1300
0:0:0:0:0:0:0:1 - - [27/Jun/2019:10:37:42 +0800] "POST /test/Show.do HTTP/1.1" 200 1005
0:0:0:0:0:0:0:1 - - [27/Jun/2019:10:37:43 +0800] "GET /test/ HTTP/1.1" 200 1300
0:0:0:0:0:0:0:1 - - [27/Jun/2019:10:37:43 +0800] "POST /test/Show.do HTTP/1.1" 200 1005
0:0:0:0:0:0:0:1 - - [27/Jun/2019:10:37:43 +0800] "GET /test/ HTTP/1.1" 200 1300
0:0:0:0:0:0:0:1 - - [27/Jun/2019:10:37:43 +0800] "POST /test/Show.do HTTP/1.1" 200 1005
0:0:0:0:0:0:0:1 - - [27/Jun/2019:10:37:43 +0800] "GET /test/ HTTP/1.1" 200 1300
0:0:0:0:0:0:0:1 - - [27/Jun/2019:10:37:43 +0800] "POST /test/Show.do HTTP/1.1" 200 1005
0:0:0:0:0:0:0:1 - - [27/Jun/2019:10:37:43 +0800] "GET /test/ HTTP/1.1" 200 1300
0:0:0:0:0:0:0:1 - - [27/Jun/2019:10:37:43 +0800] "POST /test/Show.do HTTP/1.1" 200 1005
0:0:0:0:0:0:0:1 - - [27/Jun/2019:10:37:44 +0800] "GET /test/ HTTP/1.1" 200 1300
0:0:0:0:0:0:0:1 - - [27/Jun/2019:10:37:44 +0800] "POST /test/Show.do HTTP/1.1" 200 1005
0:0:0:0:0:0:0:1 - - [27/Jun/2019:10:37:44 +0800] "GET /test/ HTTP/1.1" 200 1300
0:0:0:0:0:0:0:1 - - [27/Jun/2019:10:37:44 +0800] "POST /test/Show.do HTTP/1.1" 200 1005
0:0:0:0:0:0:0:1 - - [27/Jun/2019:10:37:46 +0800] "GET /test/ HTTP/1.1" 200 1300
0:0:0:0:0:0:0:1 - - [27/Jun/2019:10:37:46 +0800] "POST /test/Show.do HTTP/1.1" 200 1005
0:0:0:0:0:0:0:1 - - [27/Jun/2019:10:37:46 +0800] "GET /test/ HTTP/1.1" 200 1300
0:0:0:0:0:0:0:1 - - [27/Jun/2019:10:37:46 +0800] "POST /test/Show.do HTTP/1.1" 200 1005
0:0:0:0:0:0:0:1 - - [27/Jun/2019:10:37:46 +0800] "GET /test/ HTTP/1.1" 200 1300
0:0:0:0:0:0:0:1 - - [27/Jun/2019:10:37:46 +0800] "POST /test/Show.do HTTP/1.1" 200 1005
0:0:0:0:0:0:0:1 - - [27/Jun/2019:10:37:46 +0800] "GET /test/ HTTP/1.1" 200 1300
0:0:0:0:0:0:0:1 - - [27/Jun/2019:10:37:46 +0800] "POST /test/Show.do HTTP/1.1" 200 1005
0:0:0:0:0:0:0:1 - - [27/Jun/2019:10:37:46 +0800] "GET /test/ HTTP/1.1" 200 1300
0:0:0:0:0:0:0:1 - - [27/Jun/2019:10:37:46 +0800] "POST /test/Show.do HTTP/1.1" 200 1005
0:0:0:0:0:0:0:1 - - [27/Jun/2019:10:37:47 +0800] "GET /test/ HTTP/1.1" 200 1300
0:0:0:0:0:0:0:1 - - [27/Jun/2019:10:37:47 +0800] "POST /test/Show.do HTTP/1.1" 200 1005
0:0:0:0:0:0:0:1 - - [27/Jun/2019:10:37:47 +0800] "GET /test/ HTTP/1.1" 200 1300
0:0:0:0:0:0:0:1 - - [27/Jun/2019:10:37:47 +0800] "POST /test/Show.do HTTP/1.1" 200 1005
0:0:0:0:0:0:0:1 - - [27/Jun/2019:10:37:48 +0800] "GET /test/ HTTP/1.1" 200 1300
0:0:0:0:0:0:0:1 - - [27/Jun/2019:10:37:48 +0800] "POST /test/Show.do HTTP/1.1" 200 1005
0:0:0:0:0:0:0:1 - - [27/Jun/2019:10:37:48 +0800] "GET /test/ HTTP/1.1" 200 1300
0:0:0:0:0:0:0:1 - - [27/Jun/2019:10:37:48 +0800] "POST /test/Show.do HTTP/1.1" 200 1005
0:0:0:0:0:0:0:1 - - [27/Jun/2019:10:37:48 +0800] "GET /test/ HTTP/1.1" 200 1300
0:0:0:0:0:0:0:1 - - [27/Jun/2019:10:37:48 +0800] "POST /test/Show.do HTTP/1.1" 200 1005
0:0:0:0:0:0:0:1 - - [27/Jun/2019:10:37:48 +0800] "GET /test/ HTTP/1.1" 200 1300
0:0:0:0:0:0:0:1 - - [27/Jun/2019:10:37:48 +0800] "POST /test/Show.do HTTP/1.1" 200 1005
0:0:0:0:0:0:0:1 - - [27/Jun/2019:10:37:48 +0800] "GET /test/ HTTP/1.1" 200 1300
0:0:0:0:0:0:0:1 - - [27/Jun/2019:10:37:48 +0800] "POST /test/Show.do HTTP/1.1" 200 1005
0:0:0:0:0:0:0:1 - - [27/Jun/2019:10:37:48 +0800] "GET /test/ HTTP/1.1" 200 1300
0:0:0:0:0:0:0:1 - - [27/Jun/2019:10:37:48 +0800] "POST /test/Show.do HTTP/1.1" 200 1005
0:0:0:0:0:0:0:1 - - [27/Jun/2019:10:37:49 +0800] "GET /test/ HTTP/1.1" 200 1300
0:0:0:0:0:0:0:1 - - [27/Jun/2019:10:37:49 +0800] "POST /test/Show.do HTTP/1.1" 200 1005
0:0:0:0:0:0:0:1 - - [27/Jun/2019:10:37:49 +0800] "GET /test/ HTTP/1.1" 200 1300
0:0:0:0:0:0:0:1 - - [27/Jun/2019:10:37:49 +0800] "POST /test/Show.do HTTP/1.1" 200 1005
0:0:0:0:0:0:0:1 - - [27/Jun/2019:10:37:49 +0800] "GET /test/ HTTP/1.1" 200 1300
0:0:0:0:0:0:0:1 - - [27/Jun/2019:10:37:49 +0800] "POST /test/Show.do HTTP/1.1" 200 1005
0:0:0:0:0:0:0:1 - - [27/Jun/2019:10:37:50 +0800] "GET /test/ HTTP/1.1" 200 1300
0:0:0:0:0:0:0:1 - - [27/Jun/2019:10:37:50 +0800] "POST /test/Show.do HTTP/1.1" 200 1005
0:0:0:0:0:0:0:1 - - [27/Jun/2019:10:37:50 +0800] "GET /test/ HTTP/1.1" 200 1300
0:0:0:0:0:0:0:1 - - [27/Jun/2019:10:37:50 +0800] "POST /test/Show.do HTTP/1.1" 200 1005
0:0:0:0:0:0:0:1 - - [27/Jun/2019:10:37:50 +0800] "GET /test/ HTTP/1.1" 200 1300
0:0:0:0:0:0:0:1 - - [27/Jun/2019:10:37:50 +0800] "POST /test/Show.do HTTP/1.1" 200 1005
0:0:0:0:0:0:0:1 - - [27/Jun/2019:10:37:50 +0800] "GET /test/ HTTP/1.1" 200 1300
0:0:0:0:0:0:0:1 - - [27/Jun/2019:10:37:50 +0800] "POST /test/Show.do HTTP/1.1" 200 1005
0:0:0:0:0:0:0:1 - - [27/Jun/2019:10:37:50 +0800] "GET /test/ HTTP/1.1" 200 1300
0:0:0:0:0:0:0:1 - - [27/Jun/2019:10:37:50 +0800] "POST /test/Show.do HTTP/1.1" 200 1005
0:0:0:0:0:0:0:1 - - [27/Jun/2019:10:37:51 +0800] "GET /test/ HTTP/1.1" 200 1300
0:0:0:0:0:0:0:1 - - [27/Jun/2019:10:37:51 +0800] "POST /test/Show.do HTTP/1.1" 200 1005
0:0:0:0:0:0:0:1 - - [27/Jun/2019:10:37:51 +0800] "GET /test/ HTTP/1.1" 200 1300
0:0:0:0:0:0:0:1 - - [27/Jun/2019:10:37:52 +0800] "POST /test/Show.do HTTP/1.1" 200 1005
0:0:0:0:0:0:0:1 - - [27/Jun/2019:10:37:52 +0800] "GET /test/ HTTP/1.1" 200 1300
0:0:0:0:0:0:0:1 - - [27/Jun/2019:10:37:52 +0800] "POST /test/Show.do HTTP/1.1" 200 1005
0:0:0:0:0:0:0:1 - - [27/Jun/2019:10:37:52 +0800] "GET /test/ HTTP/1.1" 200 1300
0:0:0:0:0:0:0:1 - - [27/Jun/2019:10:37:52 +0800] "POST /test/Show.do HTTP/1.1" 200 1005
0:0:0:0:0:0:0:1 - - [27/Jun/2019:10:37:52 +0800] "GET /test/ HTTP/1.1" 200 1300
0:0:0:0:0:0:0:1 - - [27/Jun/2019:10:37:52 +0800] "POST /test/Show.do HTTP/1.1" 200 1005
0:0:0:0:0:0:0:1 - - [27/Jun/2019:10:37:52 +0800] "GET /test/ HTTP/1.1" 200 1300
0:0:0:0:0:0:0:1 - - [27/Jun/2019:10:37:52 +0800] "POST /test/Show.do HTTP/1.1" 200 1005
0:0:0:0:0:0:0:1 - - [27/Jun/2019:10:37:52 +0800] "GET /test/ HTTP/1.1" 200 1300
0:0:0:0:0:0:0:1 - - [27/Jun/2019:10:37:52 +0800] "POST /test/Show.do HTTP/1.1" 200 1005
0:0:0:0:0:0:0:1 - - [27/Jun/2019:10:37:52 +0800] "GET /test/ HTTP/1.1" 200 1300
0:0:0:0:0:0:0:1 - - [27/Jun/2019:10:37:52 +0800] "POST /test/Show.do HTTP/1.1" 200 1005
0:0:0:0:0:0:0:1 - - [27/Jun/2019:10:37:52 +0800] "GET /test/ HTTP/1.1" 200 1300
0:0:0:0:0:0:0:1 - - [27/Jun/2019:10:37:52 +0800] "POST /test/Show.do HTTP/1.1" 200 1005
0:0:0:0:0:0:0:1 - - [27/Jun/2019:10:37:53 +0800] "GET /test/ HTTP/1.1" 200 1300
0:0:0:0:0:0:0:1 - - [27/Jun/2019:10:37:53 +0800] "POST /test/Show.do HTTP/1.1" 200 1005
0:0:0:0:0:0:0:1 - - [27/Jun/2019:10:37:53 +0800] "GET /test/ HTTP/1.1" 200 1300
0:0:0:0:0:0:0:1 - - [27/Jun/2019:10:37:53 +0800] "POST /test/Show.do HTTP/1.1" 200 1005
0:0:0:0:0:0:0:1 - - [27/Jun/2019:10:37:53 +0800] "GET /test/ HTTP/1.1" 200 1300
0:0:0:0:0:0:0:1 - - [27/Jun/2019:10:37:53 +0800] "POST /test/Show.do HTTP/1.1" 200 1005
0:0:0:0:0:0:0:1 - - [27/Jun/2019:10:37:53 +0800] "GET /test/ HTTP/1.1" 200 1300
0:0:0:0:0:0:0:1 - - [27/Jun/2019:10:37:53 +0800] "POST /test/Show.do HTTP/1.1" 200 1005
0:0:0:0:0:0:0:1 - - [27/Jun/2019:10:37:53 +0800] "GET /test/ HTTP/1.1" 200 1300
0:0:0:0:0:0:0:1 - - [27/Jun/2019:10:37:53 +0800] "POST /test/Show.do HTTP/1.1" 200 1005
0:0:0:0:0:0:0:1 - - [27/Jun/2019:10:37:53 +0800] "GET /test/ HTTP/1.1" 200 1300
0:0:0:0:0:0:0:1 - - [27/Jun/2019:10:37:53 +0800] "POST /test/Show.do HTTP/1.1" 200 1005
0:0:0:0:0:0:0:1 - - [27/Jun/2019:10:37:54 +0800] "GET /test/ HTTP/1.1" 200 1300
0:0:0:0:0:0:0:1 - - [27/Jun/2019:10:37:54 +0800] "POST /test/Show.do HTTP/1.1" 200 1005
0:0:0:0:0:0:0:1 - - [27/Jun/2019:10:37:54 +0800] "GET /test/ HTTP/1.1" 200 1300
0:0:0:0:0:0:0:1 - - [27/Jun/2019:10:37:54 +0800] "POST /test/Show.do HTTP/1.1" 200 1005
0:0:0:0:0:0:0:1 - - [27/Jun/2019:10:37:54 +0800] "GET /test/ HTTP/1.1" 200 1300
0:0:0:0:0:0:0:1 - - [27/Jun/2019:10:37:54 +0800] "POST /test/Show.do HTTP/1.1" 200 1005
0:0:0:0:0:0:0:1 - - [27/Jun/2019:10:37:55 +0800] "GET /test/ HTTP/1.1" 200 1300
0:0:0:0:0:0:0:1 - - [27/Jun/2019:10:37:56 +0800] "POST /test/Show.do HTTP/1.1" 200 1005
0:0:0:0:0:0:0:1 - - [27/Jun/2019:10:37:56 +0800] "GET /test/ HTTP/1.1" 200 1300
0:0:0:0:0:0:0:1 - - [27/Jun/2019:10:37:56 +0800] "POST /test/Show.do HTTP/1.1" 200 1005
0:0:0:0:0:0:0:1 - - [27/Jun/2019:10:37:56 +0800] "GET /test/ HTTP/1.1" 200 1300
0:0:0:0:0:0:0:1 - - [27/Jun/2019:10:37:56 +0800] "POST /test/Show.do HTTP/1.1" 200 1005
0:0:0:0:0:0:0:1 - - [27/Jun/2019:10:37:56 +0800] "GET /test/ HTTP/1.1" 200 1300
0:0:0:0:0:0:0:1 - - [27/Jun/2019:10:37:56 +0800] "POST /test/Show.do HTTP/1.1" 200 1005
0:0:0:0:0:0:0:1 - - [27/Jun/2019:10:37:56 +0800] "GET /test/ HTTP/1.1" 200 1300
0:0:0:0:0:0:0:1 - - [27/Jun/2019:10:37:56 +0800] "POST /test/Show.do HTTP/1.1" 200 1005
0:0:0:0:0:0:0:1 - - [27/Jun/2019:10:37:56 +0800] "GET /test/ HTTP/1.1" 200 1300
0:0:0:0:0:0:0:1 - - [27/Jun/2019:10:37:56 +0800] "POST /test/Show.do HTTP/1.1" 200 1005
0:0:0:0:0:0:0:1 - - [27/Jun/2019:10:37:57 +0800] "GET /test/ HTTP/1.1" 200 1300
0:0:0:0:0:0:0:1 - - [27/Jun/2019:10:37:57 +0800] "POST /test/Show.do HTTP/1.1" 200 1005
0:0:0:0:0:0:0:1 - - [27/Jun/2019:10:37:57 +0800] "GET /test/ HTTP/1.1" 200 1300
0:0:0:0:0:0:0:1 - - [27/Jun/2019:10:37:57 +0800] "POST /test/Show.do HTTP/1.1" 200 1005
0:0:0:0:0:0:0:1 - - [27/Jun/2019:10:37:57 +0800] "GET /test/ HTTP/1.1" 200 1300
0:0:0:0:0:0:0:1 - - [27/Jun/2019:10:37:57 +0800] "POST /test/Show.do HTTP/1.1" 200 1005
0:0:0:0:0:0:0:1 - - [27/Jun/2019:10:37:57 +0800] "GET /test/ HTTP/1.1" 200 1300
0:0:0:0:0:0:0:1 - - [27/Jun/2019:10:37:57 +0800] "POST /test/Show.do HTTP/1.1" 200 1005
0:0:0:0:0:0:0:1 - - [27/Jun/2019:10:37:57 +0800] "GET /test/ HTTP/1.1" 200 1300
0:0:0:0:0:0:0:1 - - [27/Jun/2019:10:37:57 +0800] "POST /test/Show.do HTTP/1.1" 200 1005
0:0:0:0:0:0:0:1 - - [27/Jun/2019:10:37:58 +0800] "GET /test/ HTTP/1.1" 200 1300
0:0:0:0:0:0:0:1 - - [27/Jun/2019:10:37:58 +0800] "POST /test/Show.do HTTP/1.1" 200 1005
0:0:0:0:0:0:0:1 - - [27/Jun/2019:10:37:58 +0800] "GET /test/ HTTP/1.1" 200 1300
0:0:0:0:0:0:0:1 - - [27/Jun/2019:10:37:58 +0800] "POST /test/Show.do HTTP/1.1" 200 1005
0:0:0:0:0:0:0:1 - - [27/Jun/2019:10:37:58 +0800] "GET /test/ HTTP/1.1" 200 1300
0:0:0:0:0:0:0:1 - - [27/Jun/2019:10:37:58 +0800] "POST /test/Show.do HTTP/1.1" 200 1005
0:0:0:0:0:0:0:1 - - [27/Jun/2019:10:37:58 +0800] "GET /test/ HTTP/1.1" 200 1300
0:0:0:0:0:0:0:1 - - [27/Jun/2019:10:37:58 +0800] "POST /test/Show.do HTTP/1.1" 200 1005
0:0:0:0:0:0:0:1 - - [27/Jun/2019:10:37:58 +0800] "GET /test/ HTTP/1.1" 200 1300
0:0:0:0:0:0:0:1 - - [27/Jun/2019:10:37:58 +0800] "POST /test/Show.do HTTP/1.1" 200 1005
0:0:0:0:0:0:0:1 - - [27/Jun/2019:10:37:58 +0800] "GET /test/ HTTP/1.1" 200 1300
0:0:0:0:0:0:0:1 - - [27/Jun/2019:10:37:58 +0800] "POST /test/Show.do HTTP/1.1" 200 1005
0:0:0:0:0:0:0:1 - - [27/Jun/2019:10:37:59 +0800] "GET /test/ HTTP/1.1" 200 1300
0:0:0:0:0:0:0:1 - - [27/Jun/2019:10:37:59 +0800] "POST /test/Show.do HTTP/1.1" 200 1005
0:0:0:0:0:0:0:1 - - [27/Jun/2019:10:37:59 +0800] "GET /test/ HTTP/1.1" 200 1300
0:0:0:0:0:0:0:1 - - [27/Jun/2019:10:37:59 +0800] "POST /test/Show.do HTTP/1.1" 200 1005
0:0:0:0:0:0:0:1 - - [27/Jun/2019:10:37:59 +0800] "GET /test/ HTTP/1.1" 200 1300
0:0:0:0:0:0:0:1 - - [27/Jun/2019:10:37:59 +0800] "POST /test/Show.do HTTP/1.1" 200 1005
0:0:0:0:0:0:0:1 - - [27/Jun/2019:10:37:59 +0800] "GET /test/ HTTP/1.1" 200 1300
0:0:0:0:0:0:0:1 - - [27/Jun/2019:10:37:59 +0800] "POST /test/Show.do HTTP/1.1" 200 1005
0:0:0:0:0:0:0:1 - - [27/Jun/2019:10:37:59 +0800] "GET /test/ HTTP/1.1" 200 1300
0:0:0:0:0:0:0:1 - - [27/Jun/2019:10:37:59 +0800] "POST /test/Show.do HTTP/1.1" 200 1005
0:0:0:0:0:0:0:1 - - [27/Jun/2019:10:37:59 +0800] "GET /test/ HTTP/1.1" 200 1300
0:0:0:0:0:0:0:1 - - [27/Jun/2019:10:38:00 +0800] "POST /test/Show.do HTTP/1.1" 200 1005
0:0:0:0:0:0:0:1 - - [27/Jun/2019:10:38:00 +0800] "GET /test/ HTTP/1.1" 200 1300
0:0:0:0:0:0:0:1 - - [27/Jun/2019:10:38:00 +0800] "POST /test/Show.do HTTP/1.1" 200 1005
0:0:0:0:0:0:0:1 - - [27/Jun/2019:10:38:00 +0800] "GET /test/ HTTP/1.1" 200 1300
0:0:0:0:0:0:0:1 - - [27/Jun/2019:10:38:00 +0800] "POST /test/Show.do HTTP/1.1" 200 1005
0:0:0:0:0:0:0:1 - - [27/Jun/2019:10:38:00 +0800] "GET /test/ HTTP/1.1" 200 1300
0:0:0:0:0:0:0:1 - - [27/Jun/2019:10:38:00 +0800] "POST /test/Show.do HTTP/1.1" 200 1005
0:0:0:0:0:0:0:1 - - [27/Jun/2019:10:38:00 +0800] "GET /test/ HTTP/1.1" 200 1300
0:0:0:0:0:0:0:1 - - [27/Jun/2019:10:38:00 +0800] "POST /test/Show.do HTTP/1.1" 200 1005
0:0:0:0:0:0:0:1 - - [27/Jun/2019:10:38:00 +0800] "GET /test/ HTTP/1.1" 200 1300
0:0:0:0:0:0:0:1 - - [27/Jun/2019:10:38:00 +0800] "POST /test/Show.do HTTP/1.1" 200 1005
0:0:0:0:0:0:0:1 - - [27/Jun/2019:10:38:00 +0800] "GET /test/ HTTP/1.1" 200 1300
0:0:0:0:0:0:0:1 - - [27/Jun/2019:10:38:01 +0800] "POST /test/Show.do HTTP/1.1" 200 1005
0:0:0:0:0:0:0:1 - - [27/Jun/2019:10:38:01 +0800] "GET /test/ HTTP/1.1" 200 1300
0:0:0:0:0:0:0:1 - - [27/Jun/2019:10:38:01 +0800] "POST /test/Show.do HTTP/1.1" 200 1005
0:0:0:0:0:0:0:1 - - [27/Jun/2019:10:38:03 +0800] "GET /test/ HTTP/1.1" 200 1300
0:0:0:0:0:0:0:1 - - [27/Jun/2019:10:38:03 +0800] "POST /test/Show.do HTTP/1.1" 200 1005
0:0:0:0:0:0:0:1 - - [27/Jun/2019:10:38:03 +0800] "GET /test/ HTTP/1.1" 200 1300
0:0:0:0:0:0:0:1 - - [27/Jun/2019:10:38:03 +0800] "POST /test/Show.do HTTP/1.1" 200 1005
0:0:0:0:0:0:0:1 - - [27/Jun/2019:10:38:03 +0800] "GET /test/ HTTP/1.1" 200 1300
0:0:0:0:0:0:0:1 - - [27/Jun/2019:10:38:03 +0800] "POST /test/Show.do HTTP/1.1" 200 1005
0:0:0:0:0:0:0:1 - - [27/Jun/2019:10:38:03 +0800] "GET /test/ HTTP/1.1" 200 1300
0:0:0:0:0:0:0:1 - - [27/Jun/2019:10:38:03 +0800] "POST /test/Show.do HTTP/1.1" 200 1005
0:0:0:0:0:0:0:1 - - [27/Jun/2019:10:38:03 +0800] "GET /test/ HTTP/1.1" 200 1300
0:0:0:0:0:0:0:1 - - [27/Jun/2019:10:38:03 +0800] "POST /test/Show.do HTTP/1.1" 200 1005
0:0:0:0:0:0:0:1 - - [27/Jun/2019:10:38:03 +0800] "GET /test/ HTTP/1.1" 200 1300
0:0:0:0:0:0:0:1 - - [27/Jun/2019:10:38:03 +0800] "POST /test/Show.do HTTP/1.1" 200 1005
0:0:0:0:0:0:0:1 - - [27/Jun/2019:10:38:04 +0800] "GET /test/ HTTP/1.1" 200 1300
0:0:0:0:0:0:0:1 - - [27/Jun/2019:10:38:04 +0800] "POST /test/Show.do HTTP/1.1" 200 1005
0:0:0:0:0:0:0:1 - - [27/Jun/2019:10:38:04 +0800] "GET /test/ HTTP/1.1" 200 1300
0:0:0:0:0:0:0:1 - - [27/Jun/2019:10:38:04 +0800] "POST /test/Show.do HTTP/1.1" 200 1005
0:0:0:0:0:0:0:1 - - [27/Jun/2019:10:38:04 +0800] "GET /test/ HTTP/1.1" 200 1300
0:0:0:0:0:0:0:1 - - [27/Jun/2019:10:38:04 +0800] "POST /test/Show.do HTTP/1.1" 200 1005
0:0:0:0:0:0:0:1 - - [27/Jun/2019:10:38:04 +0800] "GET /test/ HTTP/1.1" 200 1300
0:0:0:0:0:0:0:1 - - [27/Jun/2019:10:38:04 +0800] "POST /test/Show.do HTTP/1.1" 200 1005
0:0:0:0:0:0:0:1 - - [27/Jun/2019:10:38:04 +0800] "GET /test/ HTTP/1.1" 200 1300
0:0:0:0:0:0:0:1 - - [27/Jun/2019:10:38:04 +0800] "POST /test/Show.do HTTP/1.1" 200 1005
0:0:0:0:0:0:0:1 - - [27/Jun/2019:10:38:04 +0800] "GET /test/ HTTP/1.1" 200 1300
0:0:0:0:0:0:0:1 - - [27/Jun/2019:10:38:04 +0800] "POST /test/Show.do HTTP/1.1" 200 1005
0:0:0:0:0:0:0:1 - - [27/Jun/2019:10:38:05 +0800] "GET /test/ HTTP/1.1" 200 1300
0:0:0:0:0:0:0:1 - - [27/Jun/2019:10:38:05 +0800] "POST /test/Show.do HTTP/1.1" 200 1005
0:0:0:0:0:0:0:1 - - [27/Jun/2019:10:38:05 +0800] "GET /test/ HTTP/1.1" 200 1300
0:0:0:0:0:0:0:1 - - [27/Jun/2019:10:38:05 +0800] "POST /test/Show.do HTTP/1.1" 200 1005
0:0:0:0:0:0:0:1 - - [27/Jun/2019:10:38:05 +0800] "GET /test/ HTTP/1.1" 200 1300
0:0:0:0:0:0:0:1 - - [27/Jun/2019:10:38:05 +0800] "POST /test/Show.do HTTP/1.1" 200 1005
0:0:0:0:0:0:0:1 - - [27/Jun/2019:10:38:05 +0800] "GET /test/ HTTP/1.1" 200 1300
0:0:0:0:0:0:0:1 - - [27/Jun/2019:10:38:05 +0800] "POST /test/Show.do HTTP/1.1" 200 1005
0:0:0:0:0:0:0:1 - - [27/Jun/2019:10:38:05 +0800] "GET /test/ HTTP/1.1" 200 1300
0:0:0:0:0:0:0:1 - - [27/Jun/2019:10:38:05 +0800] "POST /test/Show.do HTTP/1.1" 200 1005
0:0:0:0:0:0:0:1 - - [27/Jun/2019:10:38:05 +0800] "GET /test/ HTTP/1.1" 200 1300
0:0:0:0:0:0:0:1 - - [27/Jun/2019:10:38:05 +0800] "POST /test/Show.do HTTP/1.1" 200 1005
0:0:0:0:0:0:0:1 - - [27/Jun/2019:10:38:05 +0800] "GET /test/ HTTP/1.1" 200 1300
0:0:0:0:0:0:0:1 - - [27/Jun/2019:10:38:05 +0800] "POST /test/Show.do HTTP/1.1" 200 1005
127.0.0.1 - - [27/Jun/2019:10:58:35 +0800] "GET / HTTP/1.1" 404 1068
0:0:0:0:0:0:0:1 - - [27/Jun/2019:10:58:38 +0800] "GET /test/ HTTP/1.1" 200 2285
0:0:0:0:0:0:0:1 - - [27/Jun/2019:10:58:39 +0800] "POST /test/Show.do HTTP/1.1" 500 31189
0:0:0:0:0:0:0:1 - - [27/Jun/2019:10:58:43 +0800] "GET /test/ HTTP/1.1" 200 2285
0:0:0:0:0:0:0:1 - - [27/Jun/2019:10:58:43 +0800] "POST /test/Show.do HTTP/1.1" 500 31189
0:0:0:0:0:0:0:1 - - [27/Jun/2019:10:58:44 +0800] "GET /test/ HTTP/1.1" 200 2285
0:0:0:0:0:0:0:1 - - [27/Jun/2019:10:58:44 +0800] "POST /test/Show.do HTTP/1.1" 500 31189
0:0:0:0:0:0:0:1 - - [27/Jun/2019:10:58:49 +0800] "GET /test/Show.do HTTP/1.1" 500 31189
0:0:0:0:0:0:0:1 - - [27/Jun/2019:10:59:23 +0800] "GET /test HTTP/1.1" 302 -
0:0:0:0:0:0:0:1 - - [27/Jun/2019:10:59:23 +0800] "GET /test/ HTTP/1.1" 200 2285
0:0:0:0:0:0:0:1 - - [27/Jun/2019:10:59:23 +0800] "POST /test/Show.do HTTP/1.1" 500 31189
0:0:0:0:0:0:0:1 - - [27/Jun/2019:10:59:25 +0800] "GET /test/ HTTP/1.1" 200 2285
0:0:0:0:0:0:0:1 - - [27/Jun/2019:10:59:25 +0800] "POST /test/Show.do HTTP/1.1" 500 31189
127.0.0.1 - - [27/Jun/2019:11:00:57 +0800] "GET / HTTP/1.1" 404 1068
0:0:0:0:0:0:0:1 - - [27/Jun/2019:11:00:58 +0800] "GET /test/ HTTP/1.1" 200 2314
0:0:0:0:0:0:0:1 - - [27/Jun/2019:11:00:59 +0800] "POST /test/Show.do HTTP/1.1" 500 31189
0:0:0:0:0:0:0:1 - - [27/Jun/2019:11:00:59 +0800] "POST /test/search.do HTTP/1.1" 500 31189
0:0:0:0:0:0:0:1 - - [27/Jun/2019:11:00:59 +0800] "POST /test/Show.do HTTP/1.1" 500 31189
0:0:0:0:0:0:0:1 - - [27/Jun/2019:11:00:59 +0800] "GET /test/ HTTP/1.1" 200 2314
0:0:0:0:0:0:0:1 - - [27/Jun/2019:11:00:59 +0800] "POST /test/Show.do HTTP/1.1" 500 31189
0:0:0:0:0:0:0:1 - - [27/Jun/2019:11:00:59 +0800] "POST /test/search.do HTTP/1.1" 500 31189
0:0:0:0:0:0:0:1 - - [27/Jun/2019:11:00:59 +0800] "POST /test/Show.do HTTP/1.1" 500 31189
0:0:0:0:0:0:0:1 - - [27/Jun/2019:11:01:00 +0800] "GET /test/ HTTP/1.1" 200 2314
0:0:0:0:0:0:0:1 - - [27/Jun/2019:11:01:00 +0800] "POST /test/Show.do HTTP/1.1" 500 31189
0:0:0:0:0:0:0:1 - - [27/Jun/2019:11:01:00 +0800] "POST /test/search.do HTTP/1.1" 500 31189
0:0:0:0:0:0:0:1 - - [27/Jun/2019:11:01:00 +0800] "POST /test/Show.do HTTP/1.1" 500 31189
0:0:0:0:0:0:0:1 - - [27/Jun/2019:11:01:00 +0800] "GET /test/ HTTP/1.1" 200 2314
0:0:0:0:0:0:0:1 - - [27/Jun/2019:11:01:00 +0800] "POST /test/Show.do HTTP/1.1" 500 31189
0:0:0:0:0:0:0:1 - - [27/Jun/2019:11:01:00 +0800] "POST /test/search.do HTTP/1.1" 500 31189
0:0:0:0:0:0:0:1 - - [27/Jun/2019:11:01:00 +0800] "GET /test/ HTTP/1.1" 200 2314
0:0:0:0:0:0:0:1 - - [27/Jun/2019:11:01:00 +0800] "POST /test/Show.do HTTP/1.1" 500 8206
0:0:0:0:0:0:0:1 - - [27/Jun/2019:11:01:00 +0800] "POST /test/search.do HTTP/1.1" 500 31189
0:0:0:0:0:0:0:1 - - [27/Jun/2019:11:01:00 +0800] "POST /test/Show.do HTTP/1.1" 500 31189
0:0:0:0:0:0:0:1 - - [27/Jun/2019:11:01:00 +0800] "GET /test/ HTTP/1.1" 200 2314
0:0:0:0:0:0:0:1 - - [27/Jun/2019:11:01:01 +0800] "POST /test/Show.do HTTP/1.1" 500 8206
0:0:0:0:0:0:0:1 - - [27/Jun/2019:11:01:01 +0800] "POST /test/Show.do HTTP/1.1" 500 31189
0:0:0:0:0:0:0:1 - - [27/Jun/2019:11:01:01 +0800] "POST /test/Show.do HTTP/1.1" 500 31189
0:0:0:0:0:0:0:1 - - [27/Jun/2019:11:01:01 +0800] "POST /test/search.do HTTP/1.1" 500 31189
0:0:0:0:0:0:0:1 - - [27/Jun/2019:11:01:02 +0800] "GET /test/ HTTP/1.1" 200 2314
0:0:0:0:0:0:0:1 - - [27/Jun/2019:11:01:02 +0800] "POST /test/Show.do HTTP/1.1" 500 31189
0:0:0:0:0:0:0:1 - - [27/Jun/2019:11:01:02 +0800] "POST /test/search.do HTTP/1.1" 500 31189
0:0:0:0:0:0:0:1 - - [27/Jun/2019:11:01:02 +0800] "POST /test/Show.do HTTP/1.1" 500 31189
0:0:0:0:0:0:0:1 - - [27/Jun/2019:11:01:02 +0800] "GET /test/ HTTP/1.1" 200 2314
0:0:0:0:0:0:0:1 - - [27/Jun/2019:11:01:02 +0800] "POST /test/Show.do HTTP/1.1" 500 31189
0:0:0:0:0:0:0:1 - - [27/Jun/2019:11:01:02 +0800] "POST /test/search.do HTTP/1.1" 500 31189
0:0:0:0:0:0:0:1 - - [27/Jun/2019:11:01:02 +0800] "POST /test/Show.do HTTP/1.1" 500 31189
0:0:0:0:0:0:0:1 - - [27/Jun/2019:11:01:02 +0800] "GET /test/ HTTP/1.1" 200 2314
0:0:0:0:0:0:0:1 - - [27/Jun/2019:11:01:02 +0800] "POST /test/Show.do HTTP/1.1" 500 31189
0:0:0:0:0:0:0:1 - - [27/Jun/2019:11:01:02 +0800] "POST /test/search.do HTTP/1.1" 500 31189
0:0:0:0:0:0:0:1 - - [27/Jun/2019:11:01:03 +0800] "POST /test/Show.do HTTP/1.1" 500 31189
0:0:0:0:0:0:0:1 - - [27/Jun/2019:11:01:09 +0800] "GET /test/ HTTP/1.1" 200 2314
0:0:0:0:0:0:0:1 - - [27/Jun/2019:11:01:09 +0800] "POST /test/Show.do HTTP/1.1" 500 31189
0:0:0:0:0:0:0:1 - - [27/Jun/2019:11:01:09 +0800] "POST /test/search.do HTTP/1.1" 500 31189
0:0:0:0:0:0:0:1 - - [27/Jun/2019:11:01:09 +0800] "POST /test/Show.do HTTP/1.1" 500 31189
0:0:0:0:0:0:0:1 - - [27/Jun/2019:11:03:02 +0800] "GET /test/ HTTP/1.1" 200 2315
0:0:0:0:0:0:0:1 - - [27/Jun/2019:11:03:02 +0800] "POST /test/Show.do HTTP/1.1" 500 31189
0:0:0:0:0:0:0:1 - - [27/Jun/2019:11:03:02 +0800] "POST /test/search.do HTTP/1.1" 500 31189
0:0:0:0:0:0:0:1 - - [27/Jun/2019:11:03:02 +0800] "POST /test/Show.do HTTP/1.1" 500 31189
0:0:0:0:0:0:0:1 - - [27/Jun/2019:11:03:08 +0800] "GET /test/ HTTP/1.1" 200 2315
0:0:0:0:0:0:0:1 - - [27/Jun/2019:11:03:08 +0800] "POST /test/Show.do HTTP/1.1" 500 31189
0:0:0:0:0:0:0:1 - - [27/Jun/2019:11:03:08 +0800] "POST /test/search.do HTTP/1.1" 500 31189
0:0:0:0:0:0:0:1 - - [27/Jun/2019:11:03:08 +0800] "POST /test/Show.do HTTP/1.1" 500 31189
0:0:0:0:0:0:0:1 - - [27/Jun/2019:11:03:08 +0800] "GET /test/ HTTP/1.1" 200 2315
0:0:0:0:0:0:0:1 - - [27/Jun/2019:11:03:09 +0800] "POST /test/Show.do HTTP/1.1" 500 31189
0:0:0:0:0:0:0:1 - - [27/Jun/2019:11:03:09 +0800] "POST /test/search.do HTTP/1.1" 500 31189
0:0:0:0:0:0:0:1 - - [27/Jun/2019:11:03:09 +0800] "POST /test/Show.do HTTP/1.1" 500 31189
0:0:0:0:0:0:0:1 - - [27/Jun/2019:11:03:09 +0800] "GET /test/ HTTP/1.1" 200 2315
0:0:0:0:0:0:0:1 - - [27/Jun/2019:11:03:09 +0800] "POST /test/Show.do HTTP/1.1" 500 31189
0:0:0:0:0:0:0:1 - - [27/Jun/2019:11:03:09 +0800] "POST /test/search.do HTTP/1.1" 500 31189
0:0:0:0:0:0:0:1 - - [27/Jun/2019:11:03:09 +0800] "POST /test/Show.do HTTP/1.1" 500 31189
0:0:0:0:0:0:0:1 - - [27/Jun/2019:11:03:09 +0800] "GET /test/ HTTP/1.1" 200 2315
0:0:0:0:0:0:0:1 - - [27/Jun/2019:11:03:09 +0800] "POST /test/Show.do HTTP/1.1" 500 31189
0:0:0:0:0:0:0:1 - - [27/Jun/2019:11:03:09 +0800] "POST /test/search.do HTTP/1.1" 500 31189
0:0:0:0:0:0:0:1 - - [27/Jun/2019:11:03:10 +0800] "POST /test/Show.do HTTP/1.1" 500 31189
0:0:0:0:0:0:0:1 - - [27/Jun/2019:11:03:10 +0800] "GET /test/ HTTP/1.1" 200 2315
0:0:0:0:0:0:0:1 - - [27/Jun/2019:11:03:10 +0800] "POST /test/Show.do HTTP/1.1" 500 31189
0:0:0:0:0:0:0:1 - - [27/Jun/2019:11:03:10 +0800] "POST /test/search.do HTTP/1.1" 500 31189
0:0:0:0:0:0:0:1 - - [27/Jun/2019:11:03:10 +0800] "POST /test/Show.do HTTP/1.1" 500 31189
0:0:0:0:0:0:0:1 - - [27/Jun/2019:11:03:10 +0800] "GET /test/ HTTP/1.1" 200 2315
0:0:0:0:0:0:0:1 - - [27/Jun/2019:11:03:10 +0800] "POST /test/Show.do HTTP/1.1" 500 31189
0:0:0:0:0:0:0:1 - - [27/Jun/2019:11:03:10 +0800] "POST /test/search.do HTTP/1.1" 500 31189
0:0:0:0:0:0:0:1 - - [27/Jun/2019:11:03:10 +0800] "POST /test/Show.do HTTP/1.1" 500 31189
0:0:0:0:0:0:0:1 - - [27/Jun/2019:11:03:10 +0800] "GET /test/ HTTP/1.1" 200 2315
0:0:0:0:0:0:0:1 - - [27/Jun/2019:11:03:10 +0800] "POST /test/Show.do HTTP/1.1" 500 31189
0:0:0:0:0:0:0:1 - - [27/Jun/2019:11:03:10 +0800] "POST /test/search.do HTTP/1.1" 500 31189
0:0:0:0:0:0:0:1 - - [27/Jun/2019:11:03:11 +0800] "POST /test/Show.do HTTP/1.1" 500 31189
0:0:0:0:0:0:0:1 - - [27/Jun/2019:11:03:11 +0800] "GET /test/ HTTP/1.1" 200 2315
0:0:0:0:0:0:0:1 - - [27/Jun/2019:11:03:11 +0800] "POST /test/Show.do HTTP/1.1" 500 31189
0:0:0:0:0:0:0:1 - - [27/Jun/2019:11:03:11 +0800] "POST /test/search.do HTTP/1.1" 500 31189
0:0:0:0:0:0:0:1 - - [27/Jun/2019:11:03:11 +0800] "POST /test/Show.do HTTP/1.1" 500 31189
0:0:0:0:0:0:0:1 - - [27/Jun/2019:11:03:11 +0800] "GET /test/ HTTP/1.1" 200 2315
0:0:0:0:0:0:0:1 - - [27/Jun/2019:11:03:11 +0800] "POST /test/Show.do HTTP/1.1" 500 31189
0:0:0:0:0:0:0:1 - - [27/Jun/2019:11:03:11 +0800] "POST /test/search.do HTTP/1.1" 500 31189
0:0:0:0:0:0:0:1 - - [27/Jun/2019:11:03:11 +0800] "POST /test/Show.do HTTP/1.1" 500 31189
0:0:0:0:0:0:0:1 - - [27/Jun/2019:11:03:11 +0800] "GET /test/ HTTP/1.1" 200 2315
0:0:0:0:0:0:0:1 - - [27/Jun/2019:11:03:11 +0800] "POST /test/Show.do HTTP/1.1" 500 31189
0:0:0:0:0:0:0:1 - - [27/Jun/2019:11:03:11 +0800] "POST /test/search.do HTTP/1.1" 500 31189
0:0:0:0:0:0:0:1 - - [27/Jun/2019:11:03:11 +0800] "POST /test/Show.do HTTP/1.1" 500 31189
0:0:0:0:0:0:0:1 - - [27/Jun/2019:11:03:11 +0800] "GET /test/ HTTP/1.1" 200 2315
0:0:0:0:0:0:0:1 - - [27/Jun/2019:11:03:11 +0800] "POST /test/Show.do HTTP/1.1" 500 31189
0:0:0:0:0:0:0:1 - - [27/Jun/2019:11:03:11 +0800] "POST /test/search.do HTTP/1.1" 500 31189
0:0:0:0:0:0:0:1 - - [27/Jun/2019:11:03:11 +0800] "POST /test/Show.do HTTP/1.1" 500 31189
0:0:0:0:0:0:0:1 - - [27/Jun/2019:11:03:12 +0800] "GET /test/ HTTP/1.1" 200 2315
0:0:0:0:0:0:0:1 - - [27/Jun/2019:11:03:12 +0800] "POST /test/Show.do HTTP/1.1" 500 31189
0:0:0:0:0:0:0:1 - - [27/Jun/2019:11:03:12 +0800] "POST /test/search.do HTTP/1.1" 500 31189
0:0:0:0:0:0:0:1 - - [27/Jun/2019:11:03:12 +0800] "POST /test/Show.do HTTP/1.1" 500 31189
0:0:0:0:0:0:0:1 - - [27/Jun/2019:11:03:12 +0800] "GET /test/ HTTP/1.1" 200 2315
0:0:0:0:0:0:0:1 - - [27/Jun/2019:11:03:12 +0800] "POST /test/Show.do HTTP/1.1" 500 31189
0:0:0:0:0:0:0:1 - - [27/Jun/2019:11:03:12 +0800] "POST /test/search.do HTTP/1.1" 500 31189
0:0:0:0:0:0:0:1 - - [27/Jun/2019:11:03:12 +0800] "POST /test/Show.do HTTP/1.1" 500 31189
0:0:0:0:0:0:0:1 - - [27/Jun/2019:11:03:12 +0800] "GET /test/ HTTP/1.1" 200 2315
0:0:0:0:0:0:0:1 - - [27/Jun/2019:11:03:12 +0800] "POST /test/Show.do HTTP/1.1" 500 31189
0:0:0:0:0:0:0:1 - - [27/Jun/2019:11:03:12 +0800] "POST /test/search.do HTTP/1.1" 500 31189
0:0:0:0:0:0:0:1 - - [27/Jun/2019:11:03:12 +0800] "POST /test/Show.do HTTP/1.1" 500 31189
0:0:0:0:0:0:0:1 - - [27/Jun/2019:11:03:18 +0800] "GET /test/Show.do HTTP/1.1" 500 31189
127.0.0.1 - - [27/Jun/2019:11:05:45 +0800] "GET / HTTP/1.1" 404 1068
0:0:0:0:0:0:0:1 - - [27/Jun/2019:11:05:47 +0800] "GET /test/ HTTP/1.1" 200 2323
0:0:0:0:0:0:0:1 - - [27/Jun/2019:11:05:48 +0800] "POST /test/Show.do HTTP/1.1" 500 31189
0:0:0:0:0:0:0:1 - - [27/Jun/2019:11:05:48 +0800] "GET /test/ HTTP/1.1" 200 2323
0:0:0:0:0:0:0:1 - - [27/Jun/2019:11:05:48 +0800] "POST /test/Show.do HTTP/1.1" 500 31189
0:0:0:0:0:0:0:1 - - [27/Jun/2019:11:05:49 +0800] "GET /test/ HTTP/1.1" 200 2323
0:0:0:0:0:0:0:1 - - [27/Jun/2019:11:05:49 +0800] "POST /test/Show.do HTTP/1.1" 500 31189
0:0:0:0:0:0:0:1 - - [27/Jun/2019:11:05:49 +0800] "GET /test/ HTTP/1.1" 200 2323
0:0:0:0:0:0:0:1 - - [27/Jun/2019:11:05:49 +0800] "POST /test/Show.do HTTP/1.1" 500 31189
0:0:0:0:0:0:0:1 - - [27/Jun/2019:11:05:49 +0800] "GET /test/ HTTP/1.1" 200 2323
0:0:0:0:0:0:0:1 - - [27/Jun/2019:11:05:49 +0800] "POST /test/Show.do HTTP/1.1" 500 31189
0:0:0:0:0:0:0:1 - - [27/Jun/2019:11:05:49 +0800] "GET /test/ HTTP/1.1" 200 2323
0:0:0:0:0:0:0:1 - - [27/Jun/2019:11:05:49 +0800] "POST /test/Show.do HTTP/1.1" 500 31189
0:0:0:0:0:0:0:1 - - [27/Jun/2019:11:05:50 +0800] "GET /test/ HTTP/1.1" 200 2323
0:0:0:0:0:0:0:1 - - [27/Jun/2019:11:05:50 +0800] "POST /test/Show.do HTTP/1.1" 500 31189
0:0:0:0:0:0:0:1 - - [27/Jun/2019:11:05:50 +0800] "GET /test/ HTTP/1.1" 200 2323
0:0:0:0:0:0:0:1 - - [27/Jun/2019:11:05:50 +0800] "POST /test/Show.do HTTP/1.1" 500 31189
0:0:0:0:0:0:0:1 - - [27/Jun/2019:11:05:51 +0800] "GET /test/ HTTP/1.1" 200 2323
0:0:0:0:0:0:0:1 - - [27/Jun/2019:11:05:51 +0800] "POST /test/Show.do HTTP/1.1" 500 31189
0:0:0:0:0:0:0:1 - - [27/Jun/2019:11:05:51 +0800] "GET /test/ HTTP/1.1" 200 2323
0:0:0:0:0:0:0:1 - - [27/Jun/2019:11:05:52 +0800] "POST /test/Show.do HTTP/1.1" 500 31189
0:0:0:0:0:0:0:1 - - [27/Jun/2019:11:05:54 +0800] "GET /test/Show.do HTTP/1.1" 500 31189
0:0:0:0:0:0:0:1 - - [27/Jun/2019:11:06:26 +0800] "GET /test/Show.do HTTP/1.1" 500 31189
0:0:0:0:0:0:0:1 - - [27/Jun/2019:11:08:03 +0800] "GET /test/Show.do HTTP/1.1" 500 31189
0:0:0:0:0:0:0:1 - - [27/Jun/2019:11:08:04 +0800] "GET /test/Show.do HTTP/1.1" 500 31189
0:0:0:0:0:0:0:1 - - [27/Jun/2019:11:08:04 +0800] "GET /test/Show.do HTTP/1.1" 500 31189
0:0:0:0:0:0:0:1 - - [27/Jun/2019:11:08:04 +0800] "GET /test/Show.do HTTP/1.1" 500 31189
0:0:0:0:0:0:0:1 - - [27/Jun/2019:11:08:04 +0800] "GET /test/Show.do HTTP/1.1" 500 31189
0:0:0:0:0:0:0:1 - - [27/Jun/2019:11:08:05 +0800] "GET /test/Show.do HTTP/1.1" 500 31189
0:0:0:0:0:0:0:1 - - [27/Jun/2019:11:08:05 +0800] "GET /test/Show.do HTTP/1.1" 500 31189
0:0:0:0:0:0:0:1 - - [27/Jun/2019:11:08:05 +0800] "GET /test/Show.do HTTP/1.1" 500 31189
127.0.0.1 - - [27/Jun/2019:11:09:28 +0800] "GET / HTTP/1.1" 404 1068
0:0:0:0:0:0:0:1 - - [27/Jun/2019:11:09:30 +0800] "GET /test/Show.do HTTP/1.1" 200 1005
0:0:0:0:0:0:0:1 - - [27/Jun/2019:11:12:25 +0800] "GET /test/search.do HTTP/1.1" 200 2
127.0.0.1 - - [27/Jun/2019:11:12:45 +0800] "GET / HTTP/1.1" 404 1068
0:0:0:0:0:0:0:1 - - [27/Jun/2019:11:13:24 +0800] "GET /test/ HTTP/1.1" 200 2317
0:0:0:0:0:0:0:1 - - [27/Jun/2019:11:13:26 +0800] "POST /test/Show.do HTTP/1.1" 200 1005
0:0:0:0:0:0:0:1 - - [27/Jun/2019:11:13:26 +0800] "POST /test/Show.do HTTP/1.1" 200 1005
0:0:0:0:0:0:0:1 - - [27/Jun/2019:11:13:26 +0800] "POST /test/search.do HTTP/1.1" 200 985
0:0:0:0:0:0:0:1 - - [27/Jun/2019:11:13:35 +0800] "GET /test/ HTTP/1.1" 200 2317
0:0:0:0:0:0:0:1 - - [27/Jun/2019:11:13:35 +0800] "POST /test/Show.do HTTP/1.1" 200 1005
0:0:0:0:0:0:0:1 - - [27/Jun/2019:11:13:35 +0800] "POST /test/Show.do HTTP/1.1" 200 1005
0:0:0:0:0:0:0:1 - - [27/Jun/2019:11:13:35 +0800] "POST /test/search.do HTTP/1.1" 200 985
0:0:0:0:0:0:0:1 - - [27/Jun/2019:11:16:34 +0800] "GET /test/ HTTP/1.1" 200 1761
127.0.0.1 - - [27/Jun/2019:11:16:51 +0800] "GET / HTTP/1.1" 404 1068
0:0:0:0:0:0:0:1 - - [27/Jun/2019:11:16:51 +0800] "GET /test/ HTTP/1.1" 200 1761
0:0:0:0:0:0:0:1 - - [27/Jun/2019:11:16:51 +0800] "GET /test/ HTTP/1.1" 200 1761
0:0:0:0:0:0:0:1 - - [27/Jun/2019:11:16:52 +0800] "GET /test/ HTTP/1.1" 200 1761
0:0:0:0:0:0:0:1 - - [27/Jun/2019:11:16:52 +0800] "GET /test/ HTTP/1.1" 200 1761
0:0:0:0:0:0:0:1 - - [27/Jun/2019:11:16:52 +0800] "GET /test/ HTTP/1.1" 200 1761
0:0:0:0:0:0:0:1 - - [27/Jun/2019:11:16:53 +0800] "GET /test/ HTTP/1.1" 200 1761
0:0:0:0:0:0:0:1 - - [27/Jun/2019:11:16:53 +0800] "GET /test/ HTTP/1.1" 200 1761
0:0:0:0:0:0:0:1 - - [27/Jun/2019:11:16:53 +0800] "GET /test/ HTTP/1.1" 200 1761
0:0:0:0:0:0:0:1 - - [27/Jun/2019:11:16:54 +0800] "GET /test/ HTTP/1.1" 200 1761
0:0:0:0:0:0:0:1 - - [27/Jun/2019:11:16:54 +0800] "GET /test/ HTTP/1.1" 200 1761
0:0:0:0:0:0:0:1 - - [27/Jun/2019:11:16:54 +0800] "GET /test/ HTTP/1.1" 200 1761
0:0:0:0:0:0:0:1 - - [27/Jun/2019:11:16:55 +0800] "GET /test/ HTTP/1.1" 200 1761
0:0:0:0:0:0:0:1 - - [27/Jun/2019:11:16:55 +0800] "GET /test/ HTTP/1.1" 200 1761
0:0:0:0:0:0:0:1 - - [27/Jun/2019:11:16:55 +0800] "GET /test/ HTTP/1.1" 200 1761
0:0:0:0:0:0:0:1 - - [27/Jun/2019:11:16:56 +0800] "GET /test/ HTTP/1.1" 200 1761
0:0:0:0:0:0:0:1 - - [27/Jun/2019:11:16:56 +0800] "GET /test/ HTTP/1.1" 200 1761
0:0:0:0:0:0:0:1 - - [27/Jun/2019:11:16:56 +0800] "GET /test/ HTTP/1.1" 200 1761
0:0:0:0:0:0:0:1 - - [27/Jun/2019:11:16:56 +0800] "GET /test/ HTTP/1.1" 200 1761
0:0:0:0:0:0:0:1 - - [27/Jun/2019:11:16:57 +0800] "GET /test/ HTTP/1.1" 200 1761
0:0:0:0:0:0:0:1 - - [27/Jun/2019:11:16:57 +0800] "GET /test/ HTTP/1.1" 200 1761
0:0:0:0:0:0:0:1 - - [27/Jun/2019:11:16:57 +0800] "GET /test/ HTTP/1.1" 200 1761
0:0:0:0:0:0:0:1 - - [27/Jun/2019:11:16:57 +0800] "GET /test/ HTTP/1.1" 200 1761
0:0:0:0:0:0:0:1 - - [27/Jun/2019:11:16:57 +0800] "GET /test/ HTTP/1.1" 200 1761
0:0:0:0:0:0:0:1 - - [27/Jun/2019:11:16:58 +0800] "GET /test/ HTTP/1.1" 200 1761
0:0:0:0:0:0:0:1 - - [27/Jun/2019:11:16:58 +0800] "GET /test/ HTTP/1.1" 200 1761
0:0:0:0:0:0:0:1 - - [27/Jun/2019:11:16:58 +0800] "GET /test/ HTTP/1.1" 200 1761
0:0:0:0:0:0:0:1 - - [27/Jun/2019:11:16:58 +0800] "GET /test/ HTTP/1.1" 200 1761
0:0:0:0:0:0:0:1 - - [27/Jun/2019:11:16:59 +0800] "GET /test/ HTTP/1.1" 200 1761
0:0:0:0:0:0:0:1 - - [27/Jun/2019:11:16:59 +0800] "GET /test/ HTTP/1.1" 200 1761
0:0:0:0:0:0:0:1 - - [27/Jun/2019:11:16:59 +0800] "GET /test/ HTTP/1.1" 200 1761
0:0:0:0:0:0:0:1 - - [27/Jun/2019:11:16:59 +0800] "GET /test/ HTTP/1.1" 200 1761
0:0:0:0:0:0:0:1 - - [27/Jun/2019:11:16:59 +0800] "GET /test/ HTTP/1.1" 200 1761
0:0:0:0:0:0:0:1 - - [27/Jun/2019:11:17:00 +0800] "GET /test/ HTTP/1.1" 200 1761
0:0:0:0:0:0:0:1 - - [27/Jun/2019:11:17:00 +0800] "GET /test/ HTTP/1.1" 200 1761
0:0:0:0:0:0:0:1 - - [27/Jun/2019:11:17:03 +0800] "GET /test/ HTTP/1.1" 200 1761
0:0:0:0:0:0:0:1 - - [27/Jun/2019:11:17:04 +0800] "GET /test/ HTTP/1.1" 200 1761
0:0:0:0:0:0:0:1 - - [27/Jun/2019:11:17:04 +0800] "GET /test/ HTTP/1.1" 200 1761
0:0:0:0:0:0:0:1 - - [27/Jun/2019:11:17:04 +0800] "GET /test/ HTTP/1.1" 200 1761
0:0:0:0:0:0:0:1 - - [27/Jun/2019:11:17:04 +0800] "GET /test/ HTTP/1.1" 200 1761
0:0:0:0:0:0:0:1 - - [27/Jun/2019:11:17:05 +0800] "GET /test/ HTTP/1.1" 200 1761
0:0:0:0:0:0:0:1 - - [27/Jun/2019:11:17:41 +0800] "GET /test/ HTTP/1.1" 200 1771
0:0:0:0:0:0:0:1 - - [27/Jun/2019:11:17:42 +0800] "GET /test/ HTTP/1.1" 200 1771
0:0:0:0:0:0:0:1 - - [27/Jun/2019:11:17:42 +0800] "GET /test/ HTTP/1.1" 200 1771
0:0:0:0:0:0:0:1 - - [27/Jun/2019:11:17:42 +0800] "GET /test/ HTTP/1.1" 200 1771
0:0:0:0:0:0:0:1 - - [27/Jun/2019:11:17:43 +0800] "GET /test/ HTTP/1.1" 200 1771
0:0:0:0:0:0:0:1 - - [27/Jun/2019:11:17:44 +0800] "GET /test/ HTTP/1.1" 200 1771
0:0:0:0:0:0:0:1 - - [27/Jun/2019:11:17:44 +0800] "GET /test/ HTTP/1.1" 200 1771
0:0:0:0:0:0:0:1 - - [27/Jun/2019:11:18:00 +0800] "GET /test/ HTTP/1.1" 200 1770
0:0:0:0:0:0:0:1 - - [27/Jun/2019:11:18:30 +0800] "GET /test/ HTTP/1.1" 200 1765
127.0.0.1 - - [27/Jun/2019:11:19:54 +0800] "GET / HTTP/1.1" 404 1068
0:0:0:0:0:0:0:1 - - [27/Jun/2019:11:19:56 +0800] "GET /test/ HTTP/1.1" 200 2598
0:0:0:0:0:0:0:1 - - [27/Jun/2019:11:19:57 +0800] "GET /test/ HTTP/1.1" 200 2598
0:0:0:0:0:0:0:1 - - [27/Jun/2019:11:19:58 +0800] "GET /test/ HTTP/1.1" 200 2598
0:0:0:0:0:0:0:1 - - [27/Jun/2019:11:19:58 +0800] "GET /test/ HTTP/1.1" 200 2598
0:0:0:0:0:0:0:1 - - [27/Jun/2019:11:19:59 +0800] "GET /test/ HTTP/1.1" 200 2598
0:0:0:0:0:0:0:1 - - [27/Jun/2019:11:19:59 +0800] "GET /test/ HTTP/1.1" 200 2598
0:0:0:0:0:0:0:1 - - [27/Jun/2019:11:19:59 +0800] "GET /test/ HTTP/1.1" 200 2598
0:0:0:0:0:0:0:1 - - [27/Jun/2019:11:19:59 +0800] "GET /test/ HTTP/1.1" 200 2598
0:0:0:0:0:0:0:1 - - [27/Jun/2019:11:20:00 +0800] "GET /test/ HTTP/1.1" 200 2598
0:0:0:0:0:0:0:1 - - [27/Jun/2019:11:20:00 +0800] "GET /test/ HTTP/1.1" 200 2598
0:0:0:0:0:0:0:1 - - [27/Jun/2019:11:20:00 +0800] "GET /test/ HTTP/1.1" 200 2598
0:0:0:0:0:0:0:1 - - [27/Jun/2019:11:20:26 +0800] "GET /test/ HTTP/1.1" 200 2599
0:0:0:0:0:0:0:1 - - [27/Jun/2019:11:20:27 +0800] "GET /test/ HTTP/1.1" 200 2599
0:0:0:0:0:0:0:1 - - [27/Jun/2019:11:20:27 +0800] "GET /test/ HTTP/1.1" 200 2599
0:0:0:0:0:0:0:1 - - [27/Jun/2019:11:20:27 +0800] "GET /test/ HTTP/1.1" 200 2599
0:0:0:0:0:0:0:1 - - [27/Jun/2019:11:20:27 +0800] "GET /test/ HTTP/1.1" 200 2599
0:0:0:0:0:0:0:1 - - [27/Jun/2019:11:20:28 +0800] "POST /test/Show.do HTTP/1.1" 200 1005
0:0:0:0:0:0:0:1 - - [27/Jun/2019:11:20:28 +0800] "POST /test/Show.do HTTP/1.1" 200 1005
0:0:0:0:0:0:0:1 - - [27/Jun/2019:11:20:28 +0800] "POST /test/Show.do HTTP/1.1" 200 1005
0:0:0:0:0:0:0:1 - - [27/Jun/2019:11:20:28 +0800] "POST /test/Show.do HTTP/1.1" 200 1005
0:0:0:0:0:0:0:1 - - [27/Jun/2019:11:20:28 +0800] "POST /test/Show.do HTTP/1.1" 200 1005
0:0:0:0:0:0:0:1 - - [27/Jun/2019:11:20:28 +0800] "GET /test/ HTTP/1.1" 200 2599
0:0:0:0:0:0:0:1 - - [27/Jun/2019:11:20:28 +0800] "POST /test/Show.do HTTP/1.1" 200 1005
0:0:0:0:0:0:0:1 - - [27/Jun/2019:11:20:28 +0800] "GET /test/ HTTP/1.1" 200 2599
0:0:0:0:0:0:0:1 - - [27/Jun/2019:11:20:28 +0800] "POST /test/Show.do HTTP/1.1" 200 1005
0:0:0:0:0:0:0:1 - - [27/Jun/2019:11:20:28 +0800] "GET /test/ HTTP/1.1" 200 2599
0:0:0:0:0:0:0:1 - - [27/Jun/2019:11:20:28 +0800] "POST /test/Show.do HTTP/1.1" 200 1005
0:0:0:0:0:0:0:1 - - [27/Jun/2019:11:20:28 +0800] "GET /test/ HTTP/1.1" 200 2599
0:0:0:0:0:0:0:1 - - [27/Jun/2019:11:20:28 +0800] "POST /test/Show.do HTTP/1.1" 200 1005
0:0:0:0:0:0:0:1 - - [27/Jun/2019:11:20:28 +0800] "GET /test/ HTTP/1.1" 200 2599
0:0:0:0:0:0:0:1 - - [27/Jun/2019:11:20:28 +0800] "POST /test/Show.do HTTP/1.1" 200 1005
0:0:0:0:0:0:0:1 - - [27/Jun/2019:11:20:30 +0800] "POST /test/search.do HTTP/1.1" 200 248
0:0:0:0:0:0:0:1 - - [27/Jun/2019:11:20:35 +0800] "POST /test/search.do HTTP/1.1" 200 320
0:0:0:0:0:0:0:1 - - [27/Jun/2019:11:20:54 +0800] "GET /test/ HTTP/1.1" 200 2599
0:0:0:0:0:0:0:1 - - [27/Jun/2019:11:20:54 +0800] "POST /test/Show.do HTTP/1.1" 200 1005
0:0:0:0:0:0:0:1 - - [27/Jun/2019:12:58:59 +0800] "GET /test/Show.do HTTP/1.1" 200 1005
127.0.0.1 - - [27/Jun/2019:17:16:47 +0800] "GET / HTTP/1.1" 404 1068
0:0:0:0:0:0:0:1 - - [27/Jun/2019:17:16:57 +0800] "GET / HTTP/1.1" 404 1068
127.0.0.1 - - [27/Jun/2019:17:18:36 +0800] "GET / HTTP/1.1" 404 1068
0:0:0:0:0:0:0:1 - - [27/Jun/2019:17:18:44 +0800] "GET /test11 HTTP/1.1" 404 1074
0:0:0:0:0:0:0:1 - - [27/Jun/2019:17:18:48 +0800] "GET /test11/index.jsp HTTP/1.1" 404 1088
0:0:0:0:0:0:0:1 - - [27/Jun/2019:17:18:59 +0800] "GET /test11/index.jsp HTTP/1.1" 404 1088
0:0:0:0:0:0:0:1 - - [27/Jun/2019:17:19:06 +0800] "GET /test11/index.jsp HTTP/1.1" 404 1088
0:0:0:0:0:0:0:1 - - [27/Jun/2019:17:19:06 +0800] "GET /test11/index.jsp HTTP/1.1" 404 1088
127.0.0.1 - - [27/Jun/2019:17:21:22 +0800] "GET / HTTP/1.1" 404 1068
127.0.0.1 - - [27/Jun/2019:17:22:32 +0800] "GET / HTTP/1.1" 404 1068
127.0.0.1 - - [27/Jun/2019:17:23:39 +0800] "GET / HTTP/1.1" 404 1068
127.0.0.1 - - [27/Jun/2019:17:27:45 +0800] "GET / HTTP/1.1" 404 1068
0:0:0:0:0:0:0:1 - - [27/Jun/2019:17:27:54 +0800] "GET /test11/index.jsp HTTP/1.1" 200 1835
0:0:0:0:0:0:0:1 - - [27/Jun/2019:17:27:57 +0800] "POST /test11/ShowFlight.do HTTP/1.1" 500 10280
0:0:0:0:0:0:0:1 - - [27/Jun/2019:17:27:57 +0800] "POST /test11/shocity.do HTTP/1.1" 500 10274
0:0:0:0:0:0:0:1 - - [27/Jun/2019:17:28:04 +0800] "GET /test11/index.jsp HTTP/1.1" 200 1835
0:0:0:0:0:0:0:1 - - [27/Jun/2019:17:28:04 +0800] "POST /test11/shocity.do HTTP/1.1" 500 10274
0:0:0:0:0:0:0:1 - - [27/Jun/2019:17:28:04 +0800] "POST /test11/ShowFlight.do HTTP/1.1" 500 10280
0:0:0:0:0:0:0:1 - - [27/Jun/2019:17:28:09 +0800] "GET /test11/ShowFlight.do HTTP/1.1" 500 10277
0:0:0:0:0:0:0:1 - - [27/Jun/2019:17:28:39 +0800] "GET / HTTP/1.1" 404 1068
0:0:0:0:0:0:0:1 - - [27/Jun/2019:17:28:50 +0800] "GET /test11/index.jsp HTTP/1.1" 200 1835
0:0:0:0:0:0:0:1 - - [27/Jun/2019:17:28:50 +0800] "POST /test11/shocity.do HTTP/1.1" 200 117
0:0:0:0:0:0:0:1 - - [27/Jun/2019:17:28:50 +0800] "POST /test11/ShowFlight.do HTTP/1.1" 200 533
0:0:0:0:0:0:0:1 - - [27/Jun/2019:17:29:09 +0800] "GET /demo HTTP/1.1" 404 1072
0:0:0:0:0:0:0:1 - - [27/Jun/2019:17:29:18 +0800] "GET /test11/jsp HTTP/1.1" 404 1082
0:0:0:0:0:0:0:1 - - [27/Jun/2019:17:29:23 +0800] "GET /test11/index.jsp HTTP/1.1" 200 1835
0:0:0:0:0:0:0:1 - - [27/Jun/2019:17:29:23 +0800] "POST /test11/shocity.do HTTP/1.1" 200 117
0:0:0:0:0:0:0:1 - - [27/Jun/2019:17:29:23 +0800] "POST /test11/ShowFlight.do HTTP/1.1" 200 533
0:0:0:0:0:0:0:1 - - [27/Jun/2019:17:32:27 +0800] "POST /test11/shocity.do HTTP/1.1" 200 117
0:0:0:0:0:0:0:1 - - [27/Jun/2019:17:32:27 +0800] "POST /test11/ShowFlight.do HTTP/1.1" 200 533
0:0:0:0:0:0:0:1 - - [27/Jun/2019:18:13:56 +0800] "GET /test11/index.jsp HTTP/1.1" 200 1835
0:0:0:0:0:0:0:1 - - [27/Jun/2019:18:13:56 +0800] "POST /test11/shocity.do HTTP/1.1" 200 117
0:0:0:0:0:0:0:1 - - [27/Jun/2019:18:13:56 +0800] "POST /test11/ShowFlight.do HTTP/1.1" 200 533
127.0.0.1 - - [27/Jun/2019:18:35:00 +0800] "GET / HTTP/1.1" 404 1068
0:0:0:0:0:0:0:1 - - [27/Jun/2019:18:35:41 +0800] "GET /test11/index.jsp HTTP/1.1" 200 1835
0:0:0:0:0:0:0:1 - - [27/Jun/2019:18:35:41 +0800] "POST /test11/ShowFlight.do HTTP/1.1" 500 15447
0:0:0:0:0:0:0:1 - - [27/Jun/2019:18:35:41 +0800] "POST /test11/shocity.do HTTP/1.1" 200 117
127.0.0.1 - - [27/Jun/2019:18:36:28 +0800] "GET / HTTP/1.1" 404 1068
0:0:0:0:0:0:0:1 - - [27/Jun/2019:18:37:04 +0800] "GET /favicon.ico HTTP/1.1" 404 1079
0:0:0:0:0:0:0:1 - - [27/Jun/2019:18:37:04 +0800] "POST /test11/ShowFlight.do HTTP/1.1" 200 21
0:0:0:0:0:0:0:1 - - [27/Jun/2019:18:37:04 +0800] "POST /test11/shocity.do HTTP/1.1" 200 117
0:0:0:0:0:0:0:1 - - [27/Jun/2019:18:37:08 +0800] "GET /test11/index.jsp HTTP/1.1" 200 1835
0:0:0:0:0:0:0:1 - - [27/Jun/2019:18:37:08 +0800] "POST /test11/ShowFlight.do HTTP/1.1" 200 21
0:0:0:0:0:0:0:1 - - [27/Jun/2019:18:37:08 +0800] "POST /test11/shocity.do HTTP/1.1" 200 117
0:0:0:0:0:0:0:1 - - [27/Jun/2019:18:37:21 +0800] "GET /test11/index.jsp HTTP/1.1" 200 1835
0:0:0:0:0:0:0:1 - - [27/Jun/2019:18:37:21 +0800] "POST /test11/ShowFlight.do HTTP/1.1" 200 21
0:0:0:0:0:0:0:1 - - [27/Jun/2019:18:37:21 +0800] "POST /test11/shocity.do HTTP/1.1" 200 117
0:0:0:0:0:0:0:1 - - [27/Jun/2019:18:37:21 +0800] "GET /test11/index.jsp HTTP/1.1" 200 1835
0:0:0:0:0:0:0:1 - - [27/Jun/2019:18:37:21 +0800] "POST /test11/shocity.do HTTP/1.1" 200 117
0:0:0:0:0:0:0:1 - - [27/Jun/2019:18:37:21 +0800] "POST /test11/ShowFlight.do HTTP/1.1" 200 21
127.0.0.1 - - [27/Jun/2019:18:37:51 +0800] "GET / HTTP/1.1" 404 1068
0:0:0:0:0:0:0:1 - - [27/Jun/2019:18:38:02 +0800] "GET /test11/index.jsp HTTP/1.1" 200 1835
0:0:0:0:0:0:0:1 - - [27/Jun/2019:18:38:02 +0800] "POST /test11/ShowFlight.do HTTP/1.1" 200 313
0:0:0:0:0:0:0:1 - - [27/Jun/2019:18:38:02 +0800] "POST /test11/shocity.do HTTP/1.1" 200 117
0:0:0:0:0:0:0:1 - - [27/Jun/2019:18:38:03 +0800] "GET /test11/index.jsp HTTP/1.1" 200 1835
0:0:0:0:0:0:0:1 - - [27/Jun/2019:18:38:03 +0800] "POST /test11/shocity.do HTTP/1.1" 200 117
0:0:0:0:0:0:0:1 - - [27/Jun/2019:18:38:03 +0800] "POST /test11/ShowFlight.do HTTP/1.1" 200 313
127.0.0.1 - - [27/Jun/2019:18:38:48 +0800] "GET / HTTP/1.1" 404 1068
0:0:0:0:0:0:0:1 - - [27/Jun/2019:18:40:02 +0800] "GET /test11/index.jsp HTTP/1.1" 200 1850
0:0:0:0:0:0:0:1 - - [27/Jun/2019:18:40:02 +0800] "GET /test11/index.jsp HTTP/1.1" 200 1850
0:0:0:0:0:0:0:1 - - [27/Jun/2019:18:40:02 +0800] "GET /test11/index.jsp HTTP/1.1" 200 1850
0:0:0:0:0:0:0:1 - - [27/Jun/2019:18:40:02 +0800] "GET /test11/index.jsp HTTP/1.1" 200 1850
0:0:0:0:0:0:0:1 - - [27/Jun/2019:18:40:02 +0800] "GET /test11/index.jsp HTTP/1.1" 200 1850
0:0:0:0:0:0:0:1 - - [27/Jun/2019:18:40:02 +0800] "POST /test11/shocity.do HTTP/1.1" 200 117
0:0:0:0:0:0:0:1 - - [27/Jun/2019:18:40:02 +0800] "POST /test11/ShowFlight.do HTTP/1.1" 200 313
0:0:0:0:0:0:0:1 - - [27/Jun/2019:18:40:02 +0800] "POST /test11/shocity.do HTTP/1.1" 200 117
0:0:0:0:0:0:0:1 - - [27/Jun/2019:18:40:02 +0800] "POST /test11/ShowFlight.do HTTP/1.1" 200 313
0:0:0:0:0:0:0:1 - - [27/Jun/2019:18:40:04 +0800] "GET /test11/index.jsp HTTP/1.1" 200 1850
0:0:0:0:0:0:0:1 - - [27/Jun/2019:18:40:05 +0800] "POST /test11/shocity.do HTTP/1.1" 200 117
0:0:0:0:0:0:0:1 - - [27/Jun/2019:18:40:05 +0800] "POST /test11/ShowFlight.do HTTP/1.1" 200 313
