127.0.0.1 - - [06/Jul/2019:00:41:40 +0800] "GET / HTTP/1.1" 404 1068
0:0:0:0:0:0:0:1 - - [06/Jul/2019:00:41:46 +0800] "GET /show.do HTTP/1.1" 404 1075
0:0:0:0:0:0:0:1 - - [06/Jul/2019:00:41:48 +0800] "GET /show.do HTTP/1.1" 404 1075
0:0:0:0:0:0:0:1 - - [06/Jul/2019:00:41:48 +0800] "GET /favicon.ico HTTP/1.1" 404 1079
0:0:0:0:0:0:0:1 - - [06/Jul/2019:00:41:48 +0800] "GET /show.do HTTP/1.1" 404 1075
0:0:0:0:0:0:0:1 - - [06/Jul/2019:00:41:48 +0800] "GET /show.do HTTP/1.1" 404 1075
0:0:0:0:0:0:0:1 - - [06/Jul/2019:00:41:48 +0800] "GET /show.do HTTP/1.1" 404 1075
127.0.0.1 - - [06/Jul/2019:00:42:18 +0800] "GET / HTTP/1.1" 404 1068
0:0:0:0:0:0:0:1 - - [06/Jul/2019:00:42:25 +0800] "GET /demo/show.do HTTP/1.1" 500 5220
127.0.0.1 - - [06/Jul/2019:00:47:04 +0800] "GET / HTTP/1.1" 404 1068
0:0:0:0:0:0:0:1 - - [06/Jul/2019:00:47:07 +0800] "GET /show.do HTTP/1.1" 404 1075
0:0:0:0:0:0:0:1 - - [06/Jul/2019:00:47:09 +0800] "GET /show.do HTTP/1.1" 404 1075
0:0:0:0:0:0:0:1 - - [06/Jul/2019:00:47:09 +0800] "GET /show.do HTTP/1.1" 404 1075
0:0:0:0:0:0:0:1 - - [06/Jul/2019:00:47:09 +0800] "GET /show.do HTTP/1.1" 404 1075
127.0.0.1 - - [06/Jul/2019:00:47:25 +0800] "GET / HTTP/1.1" 404 1068
0:0:0:0:0:0:0:1 - - [06/Jul/2019:00:47:26 +0800] "GET /demo/show.do HTTP/1.1" 500 5220
127.0.0.1 - - [06/Jul/2019:00:49:27 +0800] "GET / HTTP/1.1" 404 1068
0:0:0:0:0:0:0:1 - - [06/Jul/2019:00:49:27 +0800] "GET /demo/show.do HTTP/1.1" 500 5220
0:0:0:0:0:0:0:1 - - [06/Jul/2019:00:49:29 +0800] "GET /demo/show.do HTTP/1.1" 500 5220
0:0:0:0:0:0:0:1 - - [06/Jul/2019:00:49:29 +0800] "GET /demo/show.do HTTP/1.1" 500 5220
0:0:0:0:0:0:0:1 - - [06/Jul/2019:00:49:29 +0800] "GET /demo/show.do HTTP/1.1" 500 5220
0:0:0:0:0:0:0:1 - - [06/Jul/2019:00:49:29 +0800] "GET /demo/show.do HTTP/1.1" 500 5220
0:0:0:0:0:0:0:1 - - [06/Jul/2019:00:49:30 +0800] "GET /demo/show.do HTTP/1.1" 500 5220
127.0.0.1 - - [06/Jul/2019:13:43:31 +0800] "GET / HTTP/1.1" 404 1068
0:0:0:0:0:0:0:1 - - [06/Jul/2019:13:43:44 +0800] "GET /demo HTTP/1.1" 404 1072
0:0:0:0:0:0:0:1 - - [06/Jul/2019:13:43:52 +0800] "GET /demo-2/login.jsp HTTP/1.1" 200 2538
0:0:0:0:0:0:0:1 - - [06/Jul/2019:13:43:52 +0800] "GET /demo-2/img/login_jj.jpg HTTP/1.1" 304 -
0:0:0:0:0:0:0:1 - - [06/Jul/2019:13:43:52 +0800] "GET /demo-2/plugin/jquery/jquery.js HTTP/1.1" 304 -
0:0:0:0:0:0:0:1 - - [06/Jul/2019:13:43:52 +0800] "GET /demo-2/img/logo.png HTTP/1.1" 304 -
0:0:0:0:0:0:0:1 - - [06/Jul/2019:13:44:07 +0800] "GET /demo-2/login.html HTTP/1.1" 404 1089
127.0.0.1 - - [06/Jul/2019:13:45:58 +0800] "GET / HTTP/1.1" 404 1068
0:0:0:0:0:0:0:1 - - [06/Jul/2019:13:45:59 +0800] "GET /demo-2/login.jsp HTTP/1.1" 200 2538
0:0:0:0:0:0:0:1 - - [06/Jul/2019:13:46:00 +0800] "GET /demo-2/login.jsp HTTP/1.1" 200 2538
0:0:0:0:0:0:0:1 - - [06/Jul/2019:13:46:00 +0800] "GET /demo-2/login.jsp HTTP/1.1" 200 2538
0:0:0:0:0:0:0:1 - - [06/Jul/2019:13:46:01 +0800] "GET /demo-2/login.jsp HTTP/1.1" 200 2538
0:0:0:0:0:0:0:1 - - [06/Jul/2019:13:46:01 +0800] "GET /demo-2/login.jsp HTTP/1.1" 200 2538
0:0:0:0:0:0:0:1 - - [06/Jul/2019:13:46:02 +0800] "GET /demo-2/login.jsp HTTP/1.1" 200 2538
0:0:0:0:0:0:0:1 - - [06/Jul/2019:13:46:02 +0800] "GET /demo-2/login.jsp HTTP/1.1" 200 2538
0:0:0:0:0:0:0:1 - - [06/Jul/2019:13:46:02 +0800] "GET /demo-2/login.jsp HTTP/1.1" 200 2538
0:0:0:0:0:0:0:1 - - [06/Jul/2019:13:46:03 +0800] "GET /demo-2/login.jsp HTTP/1.1" 200 2538
0:0:0:0:0:0:0:1 - - [06/Jul/2019:13:46:03 +0800] "GET /demo-2/login.jsp HTTP/1.1" 200 2538
0:0:0:0:0:0:0:1 - - [06/Jul/2019:13:46:03 +0800] "GET /demo-2/login.jsp HTTP/1.1" 200 2538
0:0:0:0:0:0:0:1 - - [06/Jul/2019:13:46:03 +0800] "GET /demo-2/login.jsp HTTP/1.1" 200 2538
0:0:0:0:0:0:0:1 - - [06/Jul/2019:13:46:05 +0800] "GET /demo-2/login.jsp HTTP/1.1" 200 2538
0:0:0:0:0:0:0:1 - - [06/Jul/2019:13:46:05 +0800] "GET /demo-2/login.jsp HTTP/1.1" 200 2538
0:0:0:0:0:0:0:1 - - [06/Jul/2019:13:46:05 +0800] "GET /demo-2/login.jsp HTTP/1.1" 200 2538
0:0:0:0:0:0:0:1 - - [06/Jul/2019:13:46:05 +0800] "GET /demo-2/login.jsp HTTP/1.1" 200 2538
0:0:0:0:0:0:0:1 - - [06/Jul/2019:13:46:06 +0800] "GET /demo-2/login.jsp HTTP/1.1" 200 2538
0:0:0:0:0:0:0:1 - - [06/Jul/2019:13:46:13 +0800] "GET /demo-2/login.jsp HTTP/1.1" 200 2538
0:0:0:0:0:0:0:1 - - [06/Jul/2019:13:46:14 +0800] "GET /demo-2/login.jsp HTTP/1.1" 200 2538
0:0:0:0:0:0:0:1 - - [06/Jul/2019:13:46:14 +0800] "GET /demo-2/login.jsp HTTP/1.1" 200 2538
0:0:0:0:0:0:0:1 - - [06/Jul/2019:13:46:14 +0800] "GET /demo-2/login.jsp HTTP/1.1" 200 2538
127.0.0.1 - - [06/Jul/2019:13:47:25 +0800] "GET / HTTP/1.1" 404 1068
127.0.0.1 - - [06/Jul/2019:13:49:41 +0800] "GET / HTTP/1.1" 404 1068
0:0:0:0:0:0:0:1 - - [06/Jul/2019:13:49:45 +0800] "GET /demo-2/login.jsp HTTP/1.1" 200 2536
0:0:0:0:0:0:0:1 - - [06/Jul/2019:13:49:45 +0800] "GET /demo-2/login.jsp HTTP/1.1" 200 2536
0:0:0:0:0:0:0:1 - - [06/Jul/2019:13:49:46 +0800] "GET /demo-2/login.jsp HTTP/1.1" 200 2536
0:0:0:0:0:0:0:1 - - [06/Jul/2019:13:49:46 +0800] "GET /demo-2/login.jsp HTTP/1.1" 200 2536
0:0:0:0:0:0:0:1 - - [06/Jul/2019:13:49:46 +0800] "GET /demo-2/login.jsp HTTP/1.1" 200 2536
0:0:0:0:0:0:0:1 - - [06/Jul/2019:13:49:46 +0800] "GET /demo-2/login.jsp HTTP/1.1" 200 2536
0:0:0:0:0:0:0:1 - - [06/Jul/2019:13:49:47 +0800] "GET /demo-2/login.jsp HTTP/1.1" 200 2536
0:0:0:0:0:0:0:1 - - [06/Jul/2019:13:49:47 +0800] "GET /demo-2/login.jsp HTTP/1.1" 200 2536
0:0:0:0:0:0:0:1 - - [06/Jul/2019:13:49:47 +0800] "GET /demo-2/login.jsp HTTP/1.1" 200 2536
0:0:0:0:0:0:0:1 - - [06/Jul/2019:13:49:47 +0800] "GET /demo-2/login.jsp HTTP/1.1" 200 2536
0:0:0:0:0:0:0:1 - - [06/Jul/2019:13:49:47 +0800] "GET /demo-2/login.jsp HTTP/1.1" 200 2536
0:0:0:0:0:0:0:1 - - [06/Jul/2019:13:49:48 +0800] "GET /demo-2/login.jsp HTTP/1.1" 200 2536
0:0:0:0:0:0:0:1 - - [06/Jul/2019:13:49:48 +0800] "GET /demo-2/login.jsp HTTP/1.1" 200 2536
0:0:0:0:0:0:0:1 - - [06/Jul/2019:13:49:48 +0800] "GET /demo-2/login.jsp HTTP/1.1" 200 2536
0:0:0:0:0:0:0:1 - - [06/Jul/2019:13:49:48 +0800] "GET /demo-2/login.jsp HTTP/1.1" 200 2536
0:0:0:0:0:0:0:1 - - [06/Jul/2019:13:49:48 +0800] "GET /demo-2/login.jsp HTTP/1.1" 200 2536
0:0:0:0:0:0:0:1 - - [06/Jul/2019:13:49:49 +0800] "GET /demo-2/login.jsp HTTP/1.1" 200 2536
0:0:0:0:0:0:0:1 - - [06/Jul/2019:13:49:49 +0800] "GET /demo-2/login.jsp HTTP/1.1" 200 2536
0:0:0:0:0:0:0:1 - - [06/Jul/2019:13:49:49 +0800] "GET /demo-2/login.jsp HTTP/1.1" 200 2536
0:0:0:0:0:0:0:1 - - [06/Jul/2019:13:49:49 +0800] "GET /demo-2/login.jsp HTTP/1.1" 200 2536
0:0:0:0:0:0:0:1 - - [06/Jul/2019:13:49:49 +0800] "GET /demo-2/login.jsp HTTP/1.1" 200 2536
0:0:0:0:0:0:0:1 - - [06/Jul/2019:13:49:50 +0800] "GET /demo-2/login.jsp HTTP/1.1" 200 2536
0:0:0:0:0:0:0:1 - - [06/Jul/2019:13:49:50 +0800] "GET /demo-2/login.jsp HTTP/1.1" 200 2536
0:0:0:0:0:0:0:1 - - [06/Jul/2019:13:49:56 +0800] "GET /demo-2/login.jsp HTTP/1.1" 200 2536
0:0:0:0:0:0:0:1 - - [06/Jul/2019:13:49:56 +0800] "GET /demo-2/login.jsp HTTP/1.1" 200 2536
0:0:0:0:0:0:0:1 - - [06/Jul/2019:13:53:29 +0800] "GET /demo-2/login.jsp HTTP/1.1" 200 426
0:0:0:0:0:0:0:1 - - [06/Jul/2019:13:53:30 +0800] "GET /demo-2/login.jsp HTTP/1.1" 200 426
0:0:0:0:0:0:0:1 - - [06/Jul/2019:13:53:30 +0800] "GET /demo-2/login.jsp HTTP/1.1" 200 426
0:0:0:0:0:0:0:1 - - [06/Jul/2019:13:53:30 +0800] "GET /demo-2/login.jsp HTTP/1.1" 200 426
0:0:0:0:0:0:0:1 - - [06/Jul/2019:13:53:30 +0800] "GET /demo-2/login.jsp HTTP/1.1" 200 426
0:0:0:0:0:0:0:1 - - [06/Jul/2019:13:55:43 +0800] "GET /demo-2/login.jsp HTTP/1.1" 200 733
0:0:0:0:0:0:0:1 - - [06/Jul/2019:13:55:54 +0800] "GET /demo-2/login.jsp HTTP/1.1" 200 733
0:0:0:0:0:0:0:1 - - [06/Jul/2019:13:55:55 +0800] "GET /demo-2/login.jsp HTTP/1.1" 200 733
127.0.0.1 - - [06/Jul/2019:13:56:18 +0800] "GET / HTTP/1.1" 404 1068
0:0:0:0:0:0:0:1 - - [06/Jul/2019:13:56:18 +0800] "GET /demo-2/login.jsp HTTP/1.1" 200 742
0:0:0:0:0:0:0:1 - - [06/Jul/2019:13:56:19 +0800] "GET /demo-2/login.jsp HTTP/1.1" 200 742
0:0:0:0:0:0:0:1 - - [06/Jul/2019:13:56:19 +0800] "GET /demo-2/login.jsp HTTP/1.1" 200 742
0:0:0:0:0:0:0:1 - - [06/Jul/2019:13:56:19 +0800] "GET /demo-2/login.jsp HTTP/1.1" 200 742
0:0:0:0:0:0:0:1 - - [06/Jul/2019:13:56:20 +0800] "GET /demo-2/login.jsp HTTP/1.1" 200 742
0:0:0:0:0:0:0:1 - - [06/Jul/2019:13:56:20 +0800] "GET /demo-2/login.jsp HTTP/1.1" 200 742
0:0:0:0:0:0:0:1 - - [06/Jul/2019:13:56:20 +0800] "GET /demo-2/login.jsp HTTP/1.1" 200 742
0:0:0:0:0:0:0:1 - - [06/Jul/2019:13:56:20 +0800] "GET /demo-2/login.jsp HTTP/1.1" 200 742
0:0:0:0:0:0:0:1 - - [06/Jul/2019:13:56:20 +0800] "GET /demo-2/login.jsp HTTP/1.1" 200 742
0:0:0:0:0:0:0:1 - - [06/Jul/2019:13:56:21 +0800] "GET /demo-2/login.jsp HTTP/1.1" 200 742
0:0:0:0:0:0:0:1 - - [06/Jul/2019:13:58:03 +0800] "GET /demo-2/login.jsp HTTP/1.1" 200 777
0:0:0:0:0:0:0:1 - - [06/Jul/2019:13:58:03 +0800] "GET /demo-2/login.jsp HTTP/1.1" 200 777
0:0:0:0:0:0:0:1 - - [06/Jul/2019:13:58:03 +0800] "GET /demo-2/login.jsp HTTP/1.1" 200 777
0:0:0:0:0:0:0:1 - - [06/Jul/2019:13:58:04 +0800] "GET /demo-2/login.jsp HTTP/1.1" 200 777
0:0:0:0:0:0:0:1 - - [06/Jul/2019:13:58:04 +0800] "GET /demo-2/login.jsp HTTP/1.1" 200 777
0:0:0:0:0:0:0:1 - - [06/Jul/2019:13:58:28 +0800] "GET /demo-2/login.jsp HTTP/1.1" 200 777
0:0:0:0:0:0:0:1 - - [06/Jul/2019:13:58:28 +0800] "GET /demo-2/login.jsp HTTP/1.1" 200 777
0:0:0:0:0:0:0:1 - - [06/Jul/2019:13:58:28 +0800] "GET /demo-2/login.jsp HTTP/1.1" 200 777
127.0.0.1 - - [06/Jul/2019:14:29:18 +0800] "GET / HTTP/1.1" 404 1068
0:0:0:0:0:0:0:1 - - [06/Jul/2019:14:29:38 +0800] "GET /demo-2/login.jsp HTTP/1.1" 404 1088
0:0:0:0:0:0:0:1 - - [06/Jul/2019:14:29:39 +0800] "GET /demo-2/login.jsp HTTP/1.1" 404 1088
0:0:0:0:0:0:0:1 - - [06/Jul/2019:14:29:39 +0800] "GET /demo-2/login.jsp HTTP/1.1" 404 1088
0:0:0:0:0:0:0:1 - - [06/Jul/2019:14:29:40 +0800] "GET /demo-2/login.jsp HTTP/1.1" 404 1088
0:0:0:0:0:0:0:1 - - [06/Jul/2019:14:29:40 +0800] "GET /demo-2/login.jsp HTTP/1.1" 404 1088
0:0:0:0:0:0:0:1 - - [06/Jul/2019:14:29:40 +0800] "GET /demo-2/login.jsp HTTP/1.1" 404 1088
0:0:0:0:0:0:0:1 - - [06/Jul/2019:14:29:40 +0800] "GET /demo-2/login.jsp HTTP/1.1" 404 1088
127.0.0.1 - - [06/Jul/2019:14:44:30 +0800] "GET / HTTP/1.1" 404 1068
0:0:0:0:0:0:0:1 - - [06/Jul/2019:14:44:32 +0800] "GET /demo-2/login.jsp HTTP/1.1" 200 5075
0:0:0:0:0:0:0:1 - - [06/Jul/2019:14:44:32 +0800] "GET /demo-2/images/captcha.jpeg.jpg HTTP/1.1" 200 1206
0:0:0:0:0:0:0:1 - - [06/Jul/2019:14:44:32 +0800] "GET /demo-2/js/jquery-1.8.2.min.js HTTP/1.1" 200 93443
0:0:0:0:0:0:0:1 - - [06/Jul/2019:14:44:32 +0800] "GET /demo-2/images/copy_rignt_24.png HTTP/1.1" 200 332
0:0:0:0:0:0:0:1 - - [06/Jul/2019:14:44:32 +0800] "GET /demo-2/images/0.jpg HTTP/1.1" 200 108588
0:0:0:0:0:0:0:1 - - [06/Jul/2019:14:44:32 +0800] "GET /demo-2/images/1.jpg HTTP/1.1" 200 139224
0:0:0:0:0:0:0:1 - - [06/Jul/2019:14:44:32 +0800] "GET /demo-2/images/2.jpg HTTP/1.1" 200 207218
0:0:0:0:0:0:0:1 - - [06/Jul/2019:14:44:32 +0800] "GET /demo-2/images/mask.png HTTP/1.1" 200 118
127.0.0.1 - - [06/Jul/2019:14:53:37 +0800] "GET / HTTP/1.1" 404 1068
0:0:0:0:0:0:0:1 - - [06/Jul/2019:14:54:01 +0800] "POST /demo-2/doLogin.do HTTP/1.1" 500 13388
127.0.0.1 - - [06/Jul/2019:14:55:12 +0800] "GET / HTTP/1.1" 404 1068
0:0:0:0:0:0:0:1 - - [06/Jul/2019:14:55:37 +0800] "POST /demo-2/doLogin.do HTTP/1.1" 500 13388
127.0.0.1 - - [06/Jul/2019:14:58:07 +0800] "GET / HTTP/1.1" 404 1068
0:0:0:0:0:0:0:1 - - [06/Jul/2019:14:58:11 +0800] "GET /demo-2/login.jsp HTTP/1.1" 200 5084
0:0:0:0:0:0:0:1 - - [06/Jul/2019:14:58:21 +0800] "POST /demo-2/doLogin.do HTTP/1.1" 500 9843
127.0.0.1 - - [06/Jul/2019:14:59:45 +0800] "GET / HTTP/1.1" 404 1068
0:0:0:0:0:0:0:1 - - [06/Jul/2019:14:59:48 +0800] "GET /demo-2/login.jsp HTTP/1.1" 200 5084
0:0:0:0:0:0:0:1 - - [06/Jul/2019:14:59:49 +0800] "GET /demo-2/login.jsp HTTP/1.1" 200 5084
0:0:0:0:0:0:0:1 - - [06/Jul/2019:14:59:49 +0800] "GET /demo-2/login.jsp HTTP/1.1" 200 5084
0:0:0:0:0:0:0:1 - - [06/Jul/2019:14:59:49 +0800] "GET /demo-2/login.jsp HTTP/1.1" 200 5084
0:0:0:0:0:0:0:1 - - [06/Jul/2019:14:59:50 +0800] "GET /demo-2/login.jsp HTTP/1.1" 200 5084
0:0:0:0:0:0:0:1 - - [06/Jul/2019:14:59:50 +0800] "GET /demo-2/login.jsp HTTP/1.1" 200 5084
0:0:0:0:0:0:0:1 - - [06/Jul/2019:14:59:50 +0800] "GET /demo-2/login.jsp HTTP/1.1" 200 5084
0:0:0:0:0:0:0:1 - - [06/Jul/2019:14:59:50 +0800] "GET /demo-2/login.jsp HTTP/1.1" 200 5084
0:0:0:0:0:0:0:1 - - [06/Jul/2019:14:59:54 +0800] "GET /demo-2/login.jsp HTTP/1.1" 200 5084
0:0:0:0:0:0:0:1 - - [06/Jul/2019:15:00:02 +0800] "POST /demo-2/doLogin.do HTTP/1.1" 500 13265
127.0.0.1 - - [06/Jul/2019:15:01:07 +0800] "GET / HTTP/1.1" 404 1068
0:0:0:0:0:0:0:1 - - [06/Jul/2019:15:01:10 +0800] "GET /demo-2/login.jsp HTTP/1.1" 200 5084
0:0:0:0:0:0:0:1 - - [06/Jul/2019:15:01:11 +0800] "GET /demo-2/login.jsp HTTP/1.1" 200 5084
0:0:0:0:0:0:0:1 - - [06/Jul/2019:15:01:12 +0800] "GET /demo-2/login.jsp HTTP/1.1" 200 5084
0:0:0:0:0:0:0:1 - - [06/Jul/2019:15:01:12 +0800] "GET /demo-2/login.jsp HTTP/1.1" 200 5084
0:0:0:0:0:0:0:1 - - [06/Jul/2019:15:01:12 +0800] "GET /demo-2/login.jsp HTTP/1.1" 200 5084
0:0:0:0:0:0:0:1 - - [06/Jul/2019:15:01:28 +0800] "POST /demo-2/doLogin.do HTTP/1.1" 200 389
0:0:0:0:0:0:0:1 - - [06/Jul/2019:15:01:38 +0800] "POST /demo-2/doLogin.do HTTP/1.1" 200 5084
0:0:0:0:0:0:0:1 - - [06/Jul/2019:15:01:39 +0800] "POST /demo-2/doLogin.do HTTP/1.1" 200 5084
0:0:0:0:0:0:0:1 - - [06/Jul/2019:15:01:39 +0800] "POST /demo-2/doLogin.do HTTP/1.1" 200 5084
0:0:0:0:0:0:0:1 - - [06/Jul/2019:15:01:40 +0800] "POST /demo-2/doLogin.do HTTP/1.1" 200 5084
0:0:0:0:0:0:0:1 - - [06/Jul/2019:15:01:40 +0800] "POST /demo-2/doLogin.do HTTP/1.1" 200 5084
127.0.0.1 - - [06/Jul/2019:15:08:19 +0800] "GET / HTTP/1.1" 404 1068
0:0:0:0:0:0:0:1 - - [06/Jul/2019:15:09:09 +0800] "GET /demo-2 HTTP/1.1" 302 -
0:0:0:0:0:0:0:1 - - [06/Jul/2019:15:09:10 +0800] "GET /demo-2/ HTTP/1.1" 200 57
0:0:0:0:0:0:0:1 - - [06/Jul/2019:15:09:18 +0800] "GET /demo-2/login.jsp HTTP/1.1" 200 3297
0:0:0:0:0:0:0:1 - - [06/Jul/2019:15:09:18 +0800] "GET /demo-2/css/addClass.css HTTP/1.1" 200 9163
0:0:0:0:0:0:0:1 - - [06/Jul/2019:15:09:18 +0800] "GET /demo-2/css/base.css HTTP/1.1" 200 19201
0:0:0:0:0:0:0:1 - - [06/Jul/2019:15:09:18 +0800] "GET /demo-2/css/merchant.css HTTP/1.1" 200 7372
0:0:0:0:0:0:0:1 - - [06/Jul/2019:15:09:18 +0800] "GET /demo-2/css/frame.css HTTP/1.1" 200 49144
0:0:0:0:0:0:0:1 - - [06/Jul/2019:15:09:18 +0800] "GET /demo-2/bootstrap/css/bootstrap.min.css HTTP/1.1" 200 121164
0:0:0:0:0:0:0:1 - - [06/Jul/2019:15:09:18 +0800] "GET /demo-2/css/frame_template/tab.css HTTP/1.1" 200 492
0:0:0:0:0:0:0:1 - - [06/Jul/2019:15:09:18 +0800] "GET /demo-2/img/login_bg_1.jpg HTTP/1.1" 200 1351
0:0:0:0:0:0:0:1 - - [06/Jul/2019:15:10:25 +0800] "GET /demo-2/index.html HTTP/1.1" 404 1089
127.0.0.1 - - [06/Jul/2019:15:13:16 +0800] "GET / HTTP/1.1" 404 1068
0:0:0:0:0:0:0:1 - - [06/Jul/2019:15:13:25 +0800] "GET /demo-2/ HTTP/1.1" 200 3280
0:0:0:0:0:0:0:1 - - [06/Jul/2019:15:13:25 +0800] "GET /demo-2/css/merchant.css HTTP/1.1" 304 -
0:0:0:0:0:0:0:1 - - [06/Jul/2019:15:13:25 +0800] "GET /demo-2/css/addClass.css HTTP/1.1" 304 -
0:0:0:0:0:0:0:1 - - [06/Jul/2019:15:13:25 +0800] "GET /demo-2/css/base.css HTTP/1.1" 304 -
0:0:0:0:0:0:0:1 - - [06/Jul/2019:15:13:25 +0800] "GET /demo-2/bootstrap/css/bootstrap.min.css HTTP/1.1" 304 -
0:0:0:0:0:0:0:1 - - [06/Jul/2019:15:13:25 +0800] "GET /demo-2/css/frame.css HTTP/1.1" 304 -
0:0:0:0:0:0:0:1 - - [06/Jul/2019:15:13:25 +0800] "GET /demo-2/css/frame_template/tab.css HTTP/1.1" 304 -
0:0:0:0:0:0:0:1 - - [06/Jul/2019:15:13:25 +0800] "GET /demo-2/img/login_bg_1.jpg HTTP/1.1" 304 -
0:0:0:0:0:0:0:1 - - [06/Jul/2019:15:13:29 +0800] "GET /demo-2/ HTTP/1.1" 200 3280
0:0:0:0:0:0:0:1 - - [06/Jul/2019:15:13:32 +0800] "GET /demo-2/ HTTP/1.1" 200 3280
0:0:0:0:0:0:0:1 - - [06/Jul/2019:15:13:32 +0800] "GET /demo-2/ HTTP/1.1" 200 3280
0:0:0:0:0:0:0:1 - - [06/Jul/2019:15:13:32 +0800] "GET /demo-2/ HTTP/1.1" 200 3280
0:0:0:0:0:0:0:1 - - [06/Jul/2019:15:13:32 +0800] "GET /demo-2/ HTTP/1.1" 200 3280
0:0:0:0:0:0:0:1 - - [06/Jul/2019:15:13:32 +0800] "GET /demo-2/ HTTP/1.1" 200 3280
0:0:0:0:0:0:0:1 - - [06/Jul/2019:15:13:33 +0800] "GET /demo-2/ HTTP/1.1" 200 3280
0:0:0:0:0:0:0:1 - - [06/Jul/2019:15:13:33 +0800] "GET /demo-2/ HTTP/1.1" 200 3280
0:0:0:0:0:0:0:1 - - [06/Jul/2019:15:13:33 +0800] "GET /demo-2/ HTTP/1.1" 200 3280
0:0:0:0:0:0:0:1 - - [06/Jul/2019:15:13:33 +0800] "GET /demo-2/ HTTP/1.1" 200 3280
0:0:0:0:0:0:0:1 - - [06/Jul/2019:15:13:33 +0800] "GET /demo-2/ HTTP/1.1" 200 3280
0:0:0:0:0:0:0:1 - - [06/Jul/2019:15:13:33 +0800] "GET /demo-2/ HTTP/1.1" 200 3280
127.0.0.1 - - [06/Jul/2019:15:22:35 +0800] "GET / HTTP/1.1" 404 1068
0:0:0:0:0:0:0:1 - - [06/Jul/2019:15:23:15 +0800] "GET /demo-2/ HTTP/1.1" 200 3280
0:0:0:0:0:0:0:1 - - [06/Jul/2019:15:23:15 +0800] "GET /demo-2/css/base.css HTTP/1.1" 304 -
0:0:0:0:0:0:0:1 - - [06/Jul/2019:15:23:15 +0800] "GET /demo-2/css/frame.css HTTP/1.1" 304 -
0:0:0:0:0:0:0:1 - - [06/Jul/2019:15:23:15 +0800] "GET /demo-2/css/addClass.css HTTP/1.1" 304 -
0:0:0:0:0:0:0:1 - - [06/Jul/2019:15:23:15 +0800] "GET /demo-2/css/merchant.css HTTP/1.1" 304 -
0:0:0:0:0:0:0:1 - - [06/Jul/2019:15:23:15 +0800] "GET /demo-2/bootstrap/css/bootstrap.min.css HTTP/1.1" 304 -
0:0:0:0:0:0:0:1 - - [06/Jul/2019:15:23:15 +0800] "GET /demo-2/css/frame_template/tab.css HTTP/1.1" 304 -
0:0:0:0:0:0:0:1 - - [06/Jul/2019:15:23:16 +0800] "GET /demo-2/ HTTP/1.1" 200 3280
0:0:0:0:0:0:0:1 - - [06/Jul/2019:15:23:17 +0800] "GET /demo-2/ HTTP/1.1" 200 3280
0:0:0:0:0:0:0:1 - - [06/Jul/2019:15:23:17 +0800] "GET /demo-2/ HTTP/1.1" 200 3280
0:0:0:0:0:0:0:1 - - [06/Jul/2019:15:23:23 +0800] "GET /demo-2/index.jsp HTTP/1.1" 200 7313
0:0:0:0:0:0:0:1 - - [06/Jul/2019:15:23:23 +0800] "GET /demo-2/js/jquery-1.11.3.js HTTP/1.1" 200 284394
0:0:0:0:0:0:0:1 - - [06/Jul/2019:15:23:23 +0800] "GET /demo-2/img/star.png HTTP/1.1" 200 1538
0:0:0:0:0:0:0:1 - - [06/Jul/2019:15:23:23 +0800] "GET /demo-2/img/star-ban.png HTTP/1.1" 200 1549
0:0:0:0:0:0:0:1 - - [06/Jul/2019:15:23:23 +0800] "GET /demo-2/img/headjt.png HTTP/1.1" 200 973
0:0:0:0:0:0:0:1 - - [06/Jul/2019:15:23:23 +0800] "GET /demo-2/img/headjt-active.png HTTP/1.1" 200 14944
0:0:0:0:0:0:0:1 - - [06/Jul/2019:15:23:23 +0800] "GET /demo-2/img/star-hui.png HTTP/1.1" 200 1422
0:0:0:0:0:0:0:1 - - [06/Jul/2019:15:23:23 +0800] "GET /demo-2/view/main.html HTTP/1.1" 404 1097
0:0:0:0:0:0:0:1 - - [06/Jul/2019:15:23:23 +0800] "GET /demo-2/img/msg.png HTTP/1.1" 200 1126
0:0:0:0:0:0:0:1 - - [06/Jul/2019:15:23:23 +0800] "GET /demo-2/img/jt-bottom.png HTTP/1.1" 200 973
0:0:0:0:0:0:0:1 - - [06/Jul/2019:15:23:23 +0800] "GET /demo-2/img/jt-right-co.png HTTP/1.1" 200 14944
0:0:0:0:0:0:0:1 - - [06/Jul/2019:15:23:23 +0800] "GET /demo-2/img/msg-active.png HTTP/1.1" 200 1092
0:0:0:0:0:0:0:1 - - [06/Jul/2019:15:23:23 +0800] "GET /demo-2/img/login_bg.jpg HTTP/1.1" 200 1417
0:0:0:0:0:0:0:1 - - [06/Jul/2019:15:23:23 +0800] "GET /demo-2/img/sideboardtbg.png HTTP/1.1" 200 994
0:0:0:0:0:0:0:1 - - [06/Jul/2019:15:23:23 +0800] "GET /demo-2/img/jt-right.png HTTP/1.1" 200 1004
0:0:0:0:0:0:0:1 - - [06/Jul/2019:15:23:40 +0800] "GET /demo-2/view/shopList.html HTTP/1.1" 404 1101
0:0:0:0:0:0:0:1 - - [06/Jul/2019:15:26:28 +0800] "GET /demo-2/ HTTP/1.1" 200 3280
0:0:0:0:0:0:0:1 - - [06/Jul/2019:15:26:28 +0800] "GET /demo-2/css/frame.css HTTP/1.1" 304 -
0:0:0:0:0:0:0:1 - - [06/Jul/2019:15:26:28 +0800] "GET /demo-2/bootstrap/css/bootstrap.min.css HTTP/1.1" 304 -
0:0:0:0:0:0:0:1 - - [06/Jul/2019:15:26:28 +0800] "GET /demo-2/css/base.css HTTP/1.1" 304 -
0:0:0:0:0:0:0:1 - - [06/Jul/2019:15:26:28 +0800] "GET /demo-2/css/addClass.css HTTP/1.1" 304 -
0:0:0:0:0:0:0:1 - - [06/Jul/2019:15:26:28 +0800] "GET /demo-2/css/merchant.css HTTP/1.1" 304 -
0:0:0:0:0:0:0:1 - - [06/Jul/2019:15:26:29 +0800] "GET /demo-2/css/frame_template/tab.css HTTP/1.1" 304 -
127.0.0.1 - - [06/Jul/2019:15:28:24 +0800] "GET / HTTP/1.1" 404 1068
0:0:0:0:0:0:0:1 - - [06/Jul/2019:15:28:32 +0800] "GET /demo-2/index.html HTTP/1.1" 404 1089
0:0:0:0:0:0:0:1 - - [06/Jul/2019:15:28:36 +0800] "GET /demo-2/index.html HTTP/1.1" 404 1089
0:0:0:0:0:0:0:1 - - [06/Jul/2019:15:28:52 +0800] "GET /demo-2/index.html HTTP/1.1" 404 1089
0:0:0:0:0:0:0:1 - - [06/Jul/2019:15:29:08 +0800] "GET /demo-2/index.html HTTP/1.1" 404 1089
0:0:0:0:0:0:0:1 - - [06/Jul/2019:15:29:37 +0800] "GET /demo-2/ HTTP/1.1" 200 3375
0:0:0:0:0:0:0:1 - - [06/Jul/2019:15:29:37 +0800] "GET /demo-2/css/addClass.css HTTP/1.1" 304 -
0:0:0:0:0:0:0:1 - - [06/Jul/2019:15:29:37 +0800] "GET /demo-2/bootstrap/css/bootstrap.min.css HTTP/1.1" 304 -
0:0:0:0:0:0:0:1 - - [06/Jul/2019:15:29:37 +0800] "GET /demo-2/css/merchant.css HTTP/1.1" 304 -
0:0:0:0:0:0:0:1 - - [06/Jul/2019:15:29:37 +0800] "GET /demo-2/css/base.css HTTP/1.1" 304 -
0:0:0:0:0:0:0:1 - - [06/Jul/2019:15:29:37 +0800] "GET /demo-2/css/frame.css HTTP/1.1" 304 -
0:0:0:0:0:0:0:1 - - [06/Jul/2019:15:29:37 +0800] "GET /demo-2/css/frame_template/tab.css HTTP/1.1" 304 -
127.0.0.1 - - [06/Jul/2019:15:29:42 +0800] "GET / HTTP/1.1" 404 1068
0:0:0:0:0:0:0:1 - - [06/Jul/2019:15:29:42 +0800] "GET /demo-2/ HTTP/1.1" 200 3375
0:0:0:0:0:0:0:1 - - [06/Jul/2019:15:29:43 +0800] "GET /demo-2/ HTTP/1.1" 200 3375
0:0:0:0:0:0:0:1 - - [06/Jul/2019:15:29:43 +0800] "GET /demo-2/ HTTP/1.1" 200 3375
0:0:0:0:0:0:0:1 - - [06/Jul/2019:15:29:44 +0800] "GET /demo-2/ HTTP/1.1" 200 3375
0:0:0:0:0:0:0:1 - - [06/Jul/2019:15:29:44 +0800] "GET /demo-2/ HTTP/1.1" 200 3375
0:0:0:0:0:0:0:1 - - [06/Jul/2019:15:29:45 +0800] "POST /demo-2/ HTTP/1.1" 200 3375
0:0:0:0:0:0:0:1 - - [06/Jul/2019:15:29:46 +0800] "POST /demo-2/ HTTP/1.1" 200 3375
0:0:0:0:0:0:0:1 - - [06/Jul/2019:15:29:46 +0800] "POST /demo-2/ HTTP/1.1" 200 3375
0:0:0:0:0:0:0:1 - - [06/Jul/2019:15:29:46 +0800] "POST /demo-2/ HTTP/1.1" 200 3375
0:0:0:0:0:0:0:1 - - [06/Jul/2019:15:29:47 +0800] "POST /demo-2/ HTTP/1.1" 200 3375
0:0:0:0:0:0:0:1 - - [06/Jul/2019:15:29:47 +0800] "POST /demo-2/ HTTP/1.1" 200 3375
0:0:0:0:0:0:0:1 - - [06/Jul/2019:15:29:47 +0800] "POST /demo-2/ HTTP/1.1" 200 3375
0:0:0:0:0:0:0:1 - - [06/Jul/2019:15:29:47 +0800] "POST /demo-2/ HTTP/1.1" 200 3375
0:0:0:0:0:0:0:1 - - [06/Jul/2019:15:29:47 +0800] "POST /demo-2/ HTTP/1.1" 200 3375
0:0:0:0:0:0:0:1 - - [06/Jul/2019:15:29:58 +0800] "POST /demo-2/ HTTP/1.1" 200 3375
0:0:0:0:0:0:0:1 - - [06/Jul/2019:15:29:59 +0800] "POST /demo-2/ HTTP/1.1" 200 3375
0:0:0:0:0:0:0:1 - - [06/Jul/2019:15:29:59 +0800] "POST /demo-2/ HTTP/1.1" 200 3375
0:0:0:0:0:0:0:1 - - [06/Jul/2019:15:29:59 +0800] "POST /demo-2/ HTTP/1.1" 200 3375
0:0:0:0:0:0:0:1 - - [06/Jul/2019:15:30:05 +0800] "POST /demo-2/ HTTP/1.1" 200 3375
0:0:0:0:0:0:0:1 - - [06/Jul/2019:15:31:22 +0800] "POST /demo-2/ HTTP/1.1" 200 3421
0:0:0:0:0:0:0:1 - - [06/Jul/2019:15:31:28 +0800] "POST /demo-2/ HTTP/1.1" 200 3421
0:0:0:0:0:0:0:1 - - [06/Jul/2019:15:31:29 +0800] "POST /demo-2/ HTTP/1.1" 200 3421
0:0:0:0:0:0:0:1 - - [06/Jul/2019:15:31:29 +0800] "POST /demo-2/ HTTP/1.1" 200 3421
0:0:0:0:0:0:0:1 - - [06/Jul/2019:15:31:29 +0800] "POST /demo-2/ HTTP/1.1" 200 3421
0:0:0:0:0:0:0:1 - - [06/Jul/2019:15:31:29 +0800] "POST /demo-2/ HTTP/1.1" 200 3421
0:0:0:0:0:0:0:1 - - [06/Jul/2019:15:31:34 +0800] "POST /demo-2/ HTTP/1.1" 200 3421
0:0:0:0:0:0:0:1 - - [06/Jul/2019:15:31:34 +0800] "POST /demo-2/ HTTP/1.1" 200 3421
0:0:0:0:0:0:0:1 - - [06/Jul/2019:15:31:35 +0800] "POST /demo-2/ HTTP/1.1" 200 3421
0:0:0:0:0:0:0:1 - - [06/Jul/2019:15:31:35 +0800] "POST /demo-2/ HTTP/1.1" 200 3421
0:0:0:0:0:0:0:1 - - [06/Jul/2019:15:31:40 +0800] "POST /demo-2/ HTTP/1.1" 200 3421
0:0:0:0:0:0:0:1 - - [06/Jul/2019:15:31:40 +0800] "POST /demo-2/ HTTP/1.1" 200 3421
0:0:0:0:0:0:0:1 - - [06/Jul/2019:15:31:40 +0800] "POST /demo-2/ HTTP/1.1" 200 3421
0:0:0:0:0:0:0:1 - - [06/Jul/2019:15:31:43 +0800] "GET /demo-2/css/frame.css.map HTTP/1.1" 404 1100
0:0:0:0:0:0:0:1 - - [06/Jul/2019:15:31:43 +0800] "GET /demo-2/css/frame_template/tab.css.map HTTP/1.1" 404 1117
0:0:0:0:0:0:0:1 - - [06/Jul/2019:15:31:43 +0800] "GET /demo-2/css/base.css.map HTTP/1.1" 404 1099
0:0:0:0:0:0:0:1 - - [06/Jul/2019:15:31:43 +0800] "GET /demo-2/bootstrap/css/bootstrap.min.css.map HTTP/1.1" 200 542194
0:0:0:0:0:0:0:1 - - [06/Jul/2019:15:31:45 +0800] "POST /demo-2/ HTTP/1.1" 200 3421
0:0:0:0:0:0:0:1 - - [06/Jul/2019:15:31:45 +0800] "GET /demo-2/img/login_bg_1.jpg HTTP/1.1" 304 -
0:0:0:0:0:0:0:1 - - [06/Jul/2019:15:31:45 +0800] "GET /demo-2/css/frame.css.map HTTP/1.1" 404 1100
0:0:0:0:0:0:0:1 - - [06/Jul/2019:15:31:45 +0800] "GET /demo-2/css/base.css.map HTTP/1.1" 404 1099
0:0:0:0:0:0:0:1 - - [06/Jul/2019:15:31:45 +0800] "GET /demo-2/css/frame_template/tab.css.map HTTP/1.1" 404 1117
0:0:0:0:0:0:0:1 - - [06/Jul/2019:15:31:53 +0800] "POST /demo-2/ HTTP/1.1" 200 3421
0:0:0:0:0:0:0:1 - - [06/Jul/2019:15:31:53 +0800] "GET /demo-2/bootstrap/css/bootstrap.min.css HTTP/1.1" 304 -
0:0:0:0:0:0:0:1 - - [06/Jul/2019:15:31:53 +0800] "GET /demo-2/css/frame.css HTTP/1.1" 304 -
0:0:0:0:0:0:0:1 - - [06/Jul/2019:15:31:53 +0800] "GET /demo-2/css/base.css HTTP/1.1" 304 -
0:0:0:0:0:0:0:1 - - [06/Jul/2019:15:31:53 +0800] "GET /demo-2/css/merchant.css HTTP/1.1" 304 -
0:0:0:0:0:0:0:1 - - [06/Jul/2019:15:31:53 +0800] "GET /demo-2/css/addClass.css HTTP/1.1" 304 -
0:0:0:0:0:0:0:1 - - [06/Jul/2019:15:31:53 +0800] "GET /demo-2/css/frame_template/tab.css HTTP/1.1" 304 -
0:0:0:0:0:0:0:1 - - [06/Jul/2019:15:31:53 +0800] "GET /demo-2/css/frame_template/tab.css.map HTTP/1.1" 404 1117
0:0:0:0:0:0:0:1 - - [06/Jul/2019:15:31:53 +0800] "GET /demo-2/css/base.css.map HTTP/1.1" 404 1099
0:0:0:0:0:0:0:1 - - [06/Jul/2019:15:31:53 +0800] "GET /demo-2/css/frame.css.map HTTP/1.1" 404 1100
127.0.0.1 - - [06/Jul/2019:15:32:26 +0800] "GET / HTTP/1.1" 404 1068
0:0:0:0:0:0:0:1 - - [06/Jul/2019:15:32:26 +0800] "POST /demo-2/ HTTP/1.1" 200 3431
0:0:0:0:0:0:0:1 - - [06/Jul/2019:15:32:26 +0800] "GET /demo-2/css/base.css.map HTTP/1.1" 404 1099
0:0:0:0:0:0:0:1 - - [06/Jul/2019:15:32:26 +0800] "GET /demo-2/css/frame_template/tab.css.map HTTP/1.1" 404 1117
0:0:0:0:0:0:0:1 - - [06/Jul/2019:15:32:26 +0800] "GET /demo-2/css/frame.css.map HTTP/1.1" 404 1100
0:0:0:0:0:0:0:1 - - [06/Jul/2019:15:32:33 +0800] "POST /demo-2/doLogin.do HTTP/1.1" 200 389
