127.0.0.1 - - [26/Jun/2019:21:30:23 +0800] "GET / HTTP/1.1" 404 1068
0:0:0:0:0:0:0:1 - - [26/Jun/2019:21:30:25 +0800] "GET / HTTP/1.1" 404 1068
0:0:0:0:0:0:0:1 - - [26/Jun/2019:21:30:25 +0800] "GET /favicon.ico HTTP/1.1" 404 1079
0:0:0:0:0:0:0:1 - - [26/Jun/2019:21:30:30 +0800] "GET /test/index.jsp HTTP/1.1" 404 1086
0:0:0:0:0:0:0:1 - - [26/Jun/2019:21:30:43 +0800] "GET /test/Show.do HTTP/1.1" 404 1084
0:0:0:0:0:0:0:1 - - [26/Jun/2019:21:30:58 +0800] "GET /test/Show.do HTTP/1.1" 404 1084
0:0:0:0:0:0:0:1 - - [26/Jun/2019:21:31:01 +0800] "GET /test/ HTTP/1.1" 404 1077
0:0:0:0:0:0:0:1 - - [26/Jun/2019:21:31:05 +0800] "GET /test/index.jsp HTTP/1.1" 404 1086
127.0.0.1 - - [26/Jun/2019:21:31:48 +0800] "GET / HTTP/1.1" 404 1068
0:0:0:0:0:0:0:1 - - [26/Jun/2019:21:31:48 +0800] "GET /test/index.jsp HTTP/1.1" 200 1216
0:0:0:0:0:0:0:1 - - [26/Jun/2019:21:31:57 +0800] "GET /test/Shwo.do HTTP/1.1" 404 1042
0:0:0:0:0:0:0:1 - - [26/Jun/2019:21:32:13 +0800] "GET /test/Show.do HTTP/1.1" 404 1042
127.0.0.1 - - [26/Jun/2019:21:44:43 +0800] "GET / HTTP/1.1" 404 1068
0:0:0:0:0:0:0:1 - - [26/Jun/2019:21:47:02 +0800] "GET /test/index.jsp HTTP/1.1" 200 1216
0:0:0:0:0:0:0:1 - - [26/Jun/2019:21:47:14 +0800] "GET /test/Show.do HTTP/1.1" 200 474
0:0:0:0:0:0:0:1 - - [26/Jun/2019:21:56:50 +0800] "GET /test/index.jsp HTTP/1.1" 200 1224
0:0:0:0:0:0:0:1 - - [26/Jun/2019:21:57:10 +0800] "GET /test/index.jsp HTTP/1.1" 200 1223
0:0:0:0:0:0:0:1 - - [26/Jun/2019:21:57:11 +0800] "GET /test/index.jsp HTTP/1.1" 200 1223
0:0:0:0:0:0:0:1 - - [26/Jun/2019:21:57:11 +0800] "GET /test/index.jsp HTTP/1.1" 200 1223
0:0:0:0:0:0:0:1 - - [26/Jun/2019:21:57:11 +0800] "GET /test/index.jsp HTTP/1.1" 200 1223
0:0:0:0:0:0:0:1 - - [26/Jun/2019:21:57:11 +0800] "GET /test/index.jsp HTTP/1.1" 200 1223
0:0:0:0:0:0:0:1 - - [26/Jun/2019:21:57:36 +0800] "GET /test/index.jsp HTTP/1.1" 200 1229
0:0:0:0:0:0:0:1 - - [26/Jun/2019:21:57:36 +0800] "POST /test/Show.do HTTP/1.1" 200 474
0:0:0:0:0:0:0:1 - - [26/Jun/2019:22:02:22 +0800] "OPTIONS /test/Show.do HTTP/1.1" 200 -
0:0:0:0:0:0:0:1 - - [26/Jun/2019:22:02:22 +0800] "PROPFIND /test/Show.do HTTP/1.1" 501 1080
0:0:0:0:0:0:0:1 - - [26/Jun/2019:22:02:23 +0800] "PROPFIND /test HTTP/1.1" 302 -
0:0:0:0:0:0:0:1 - - [26/Jun/2019:22:02:23 +0800] "PROPFIND /test/ HTTP/1.1" 405 1090
0:0:0:0:0:0:0:1 - - [26/Jun/2019:22:02:23 +0800] "PROPFIND /test/Show.do HTTP/1.1" 501 1080
0:0:0:0:0:0:0:1 - - [26/Jun/2019:22:02:23 +0800] "PROPFIND /test HTTP/1.1" 302 -
0:0:0:0:0:0:0:1 - - [26/Jun/2019:22:02:23 +0800] "PROPFIND /test/ HTTP/1.1" 405 1090
0:0:0:0:0:0:0:1 - - [26/Jun/2019:22:02:23 +0800] "PROPFIND /test HTTP/1.1" 302 -
0:0:0:0:0:0:0:1 - - [26/Jun/2019:22:02:23 +0800] "PROPFIND /test/ HTTP/1.1" 405 1090
0:0:0:0:0:0:0:1 - - [26/Jun/2019:22:02:23 +0800] "PROPFIND /test/Show.do HTTP/1.1" 501 1080
0:0:0:0:0:0:0:1 - - [26/Jun/2019:22:02:23 +0800] "PROPFIND /test HTTP/1.1" 302 -
0:0:0:0:0:0:0:1 - - [26/Jun/2019:22:02:23 +0800] "PROPFIND /test/ HTTP/1.1" 405 1090
0:0:0:0:0:0:0:1 - - [26/Jun/2019:22:02:23 +0800] "GET /test/Show.do HTTP/1.1" 200 474
0:0:0:0:0:0:0:1 - - [26/Jun/2019:22:10:49 +0800] "GET /test/index.jsp HTTP/1.1" 200 1245
0:0:0:0:0:0:0:1 - - [26/Jun/2019:22:10:49 +0800] "POST /test/Show.do HTTP/1.1" 200 474
0:0:0:0:0:0:0:1 - - [26/Jun/2019:22:12:04 +0800] "GET /test/index.jsp HTTP/1.1" 200 1245
0:0:0:0:0:0:0:1 - - [26/Jun/2019:22:12:05 +0800] "POST /test/Show.do HTTP/1.1" 400 1130
0:0:0:0:0:0:0:1 - - [26/Jun/2019:22:12:48 +0800] "GET /test/index.jsp HTTP/1.1" 200 1245
0:0:0:0:0:0:0:1 - - [26/Jun/2019:22:12:48 +0800] "POST /test/Show.do HTTP/1.1" 400 1130
0:0:0:0:0:0:0:1 - - [26/Jun/2019:22:12:49 +0800] "GET /test/index.jsp HTTP/1.1" 200 1245
0:0:0:0:0:0:0:1 - - [26/Jun/2019:22:12:49 +0800] "POST /test/Show.do HTTP/1.1" 400 1130
0:0:0:0:0:0:0:1 - - [26/Jun/2019:22:12:49 +0800] "GET /test/index.jsp HTTP/1.1" 200 1245
0:0:0:0:0:0:0:1 - - [26/Jun/2019:22:12:49 +0800] "POST /test/Show.do HTTP/1.1" 400 1130
0:0:0:0:0:0:0:1 - - [26/Jun/2019:22:12:49 +0800] "GET /test/index.jsp HTTP/1.1" 200 1245
0:0:0:0:0:0:0:1 - - [26/Jun/2019:22:12:50 +0800] "POST /test/Show.do HTTP/1.1" 400 1130
127.0.0.1 - - [26/Jun/2019:22:12:58 +0800] "GET / HTTP/1.1" 404 1068
0:0:0:0:0:0:0:1 - - [26/Jun/2019:22:12:58 +0800] "GET /test/index.jsp HTTP/1.1" 200 1245
0:0:0:0:0:0:0:1 - - [26/Jun/2019:22:12:59 +0800] "GET /test/index.jsp HTTP/1.1" 200 1245
0:0:0:0:0:0:0:1 - - [26/Jun/2019:22:12:59 +0800] "POST /test/Show.do HTTP/1.1" 400 1130
0:0:0:0:0:0:0:1 - - [26/Jun/2019:22:12:59 +0800] "POST /test/Show.do HTTP/1.1" 400 1130
0:0:0:0:0:0:0:1 - - [26/Jun/2019:22:13:22 +0800] "GET /test/index.jsp HTTP/1.1" 200 1245
0:0:0:0:0:0:0:1 - - [26/Jun/2019:22:13:22 +0800] "POST /test/Show.do HTTP/1.1" 400 1130
0:0:0:0:0:0:0:1 - - [26/Jun/2019:22:13:23 +0800] "GET /test/index.jsp HTTP/1.1" 200 1245
0:0:0:0:0:0:0:1 - - [26/Jun/2019:22:13:23 +0800] "POST /test/Show.do HTTP/1.1" 400 1130
0:0:0:0:0:0:0:1 - - [26/Jun/2019:22:13:23 +0800] "GET /test/index.jsp HTTP/1.1" 200 1245
0:0:0:0:0:0:0:1 - - [26/Jun/2019:22:13:23 +0800] "POST /test/Show.do HTTP/1.1" 400 1130
0:0:0:0:0:0:0:1 - - [26/Jun/2019:22:13:24 +0800] "GET /test/index.jsp HTTP/1.1" 200 1245
0:0:0:0:0:0:0:1 - - [26/Jun/2019:22:13:24 +0800] "POST /test/Show.do HTTP/1.1" 400 1130
0:0:0:0:0:0:0:1 - - [26/Jun/2019:22:13:24 +0800] "GET /test/index.jsp HTTP/1.1" 200 1245
0:0:0:0:0:0:0:1 - - [26/Jun/2019:22:13:24 +0800] "POST /test/Show.do HTTP/1.1" 400 1130
0:0:0:0:0:0:0:1 - - [26/Jun/2019:22:13:24 +0800] "GET /test/index.jsp HTTP/1.1" 200 1245
0:0:0:0:0:0:0:1 - - [26/Jun/2019:22:13:24 +0800] "POST /test/Show.do HTTP/1.1" 400 1130
0:0:0:0:0:0:0:1 - - [26/Jun/2019:22:13:24 +0800] "GET /test/index.jsp HTTP/1.1" 200 1245
0:0:0:0:0:0:0:1 - - [26/Jun/2019:22:13:24 +0800] "POST /test/Show.do HTTP/1.1" 400 1130
0:0:0:0:0:0:0:1 - - [26/Jun/2019:22:13:24 +0800] "GET /test/index.jsp HTTP/1.1" 200 1245
0:0:0:0:0:0:0:1 - - [26/Jun/2019:22:13:24 +0800] "POST /test/Show.do HTTP/1.1" 400 1130
0:0:0:0:0:0:0:1 - - [26/Jun/2019:22:13:25 +0800] "GET /test/index.jsp HTTP/1.1" 200 1245
0:0:0:0:0:0:0:1 - - [26/Jun/2019:22:13:25 +0800] "POST /test/Show.do HTTP/1.1" 400 1130
127.0.0.1 - - [26/Jun/2019:22:13:39 +0800] "GET / HTTP/1.1" 404 1068
0:0:0:0:0:0:0:1 - - [26/Jun/2019:22:13:40 +0800] "GET /test/index.jsp HTTP/1.1" 200 1245
0:0:0:0:0:0:0:1 - - [26/Jun/2019:22:13:41 +0800] "GET /test/index.jsp HTTP/1.1" 200 1245
0:0:0:0:0:0:0:1 - - [26/Jun/2019:22:13:41 +0800] "GET /test/index.jsp HTTP/1.1" 200 1245
0:0:0:0:0:0:0:1 - - [26/Jun/2019:22:13:41 +0800] "POST /test/Show.do HTTP/1.1" 200 478
0:0:0:0:0:0:0:1 - - [26/Jun/2019:22:13:41 +0800] "POST /test/Show.do HTTP/1.1" 200 478
0:0:0:0:0:0:0:1 - - [26/Jun/2019:22:13:41 +0800] "POST /test/Show.do HTTP/1.1" 200 478
0:0:0:0:0:0:0:1 - - [26/Jun/2019:22:13:42 +0800] "GET /test/index.jsp HTTP/1.1" 200 1245
0:0:0:0:0:0:0:1 - - [26/Jun/2019:22:13:42 +0800] "POST /test/Show.do HTTP/1.1" 200 478
0:0:0:0:0:0:0:1 - - [26/Jun/2019:22:13:42 +0800] "GET /test/index.jsp HTTP/1.1" 200 1245
0:0:0:0:0:0:0:1 - - [26/Jun/2019:22:13:42 +0800] "POST /test/Show.do HTTP/1.1" 200 478
0:0:0:0:0:0:0:1 - - [26/Jun/2019:22:13:42 +0800] "GET /test/index.jsp HTTP/1.1" 200 1245
0:0:0:0:0:0:0:1 - - [26/Jun/2019:22:13:42 +0800] "POST /test/Show.do HTTP/1.1" 200 478
0:0:0:0:0:0:0:1 - - [26/Jun/2019:22:13:43 +0800] "GET /test/index.jsp HTTP/1.1" 200 1245
0:0:0:0:0:0:0:1 - - [26/Jun/2019:22:13:43 +0800] "POST /test/Show.do HTTP/1.1" 200 478
0:0:0:0:0:0:0:1 - - [26/Jun/2019:22:16:17 +0800] "GET /test/index.jsp HTTP/1.1" 200 1256
0:0:0:0:0:0:0:1 - - [26/Jun/2019:22:16:19 +0800] "POST /test/Show.do HTTP/1.1" 200 478
0:0:0:0:0:0:0:1 - - [26/Jun/2019:22:16:19 +0800] "GET /test/index.jsp HTTP/1.1" 200 1256
0:0:0:0:0:0:0:1 - - [26/Jun/2019:22:16:19 +0800] "POST /test/Show.do HTTP/1.1" 200 478
0:0:0:0:0:0:0:1 - - [26/Jun/2019:22:16:20 +0800] "GET /test/index.jsp HTTP/1.1" 200 1256
0:0:0:0:0:0:0:1 - - [26/Jun/2019:22:16:20 +0800] "POST /test/Show.do HTTP/1.1" 200 478
0:0:0:0:0:0:0:1 - - [26/Jun/2019:22:16:20 +0800] "GET /test/index.jsp HTTP/1.1" 200 1256
0:0:0:0:0:0:0:1 - - [26/Jun/2019:22:16:20 +0800] "POST /test/Show.do HTTP/1.1" 200 478
0:0:0:0:0:0:0:1 - - [26/Jun/2019:22:16:20 +0800] "GET /test/index.jsp HTTP/1.1" 200 1256
0:0:0:0:0:0:0:1 - - [26/Jun/2019:22:16:20 +0800] "POST /test/Show.do HTTP/1.1" 200 478
0:0:0:0:0:0:0:1 - - [26/Jun/2019:22:16:27 +0800] "GET /test/index.jsp HTTP/1.1" 200 1263
0:0:0:0:0:0:0:1 - - [26/Jun/2019:22:16:27 +0800] "POST /test/Show.do HTTP/1.1" 200 478
0:0:0:0:0:0:0:1 - - [26/Jun/2019:22:16:27 +0800] "GET /test/index.jsp HTTP/1.1" 200 1263
0:0:0:0:0:0:0:1 - - [26/Jun/2019:22:16:27 +0800] "POST /test/Show.do HTTP/1.1" 200 478
0:0:0:0:0:0:0:1 - - [26/Jun/2019:22:16:27 +0800] "GET /test/index.jsp HTTP/1.1" 200 1263
0:0:0:0:0:0:0:1 - - [26/Jun/2019:22:16:27 +0800] "POST /test/Show.do HTTP/1.1" 200 478
0:0:0:0:0:0:0:1 - - [26/Jun/2019:22:16:28 +0800] "GET /test/add.jsp HTTP/1.1" 404 1084
0:0:0:0:0:0:0:1 - - [26/Jun/2019:22:16:29 +0800] "POST /test/Show.do HTTP/1.1" 200 478
0:0:0:0:0:0:0:1 - - [26/Jun/2019:22:17:09 +0800] "GET /test/Show.do HTTP/1.1" 200 478
0:0:0:0:0:0:0:1 - - [26/Jun/2019:22:20:21 +0800] "GET /smbms HTTP/1.1" 404 1073
0:0:0:0:0:0:0:1 - - [26/Jun/2019:22:20:26 +0800] "GET /test/index.jsp HTTP/1.1" 200 1263
0:0:0:0:0:0:0:1 - - [26/Jun/2019:22:20:26 +0800] "POST /test/Show.do HTTP/1.1" 200 478
0:0:0:0:0:0:0:1 - - [26/Jun/2019:22:20:27 +0800] "GET /test/index.jsp HTTP/1.1" 200 1263
0:0:0:0:0:0:0:1 - - [26/Jun/2019:22:20:27 +0800] "POST /test/Show.do HTTP/1.1" 200 478
0:0:0:0:0:0:0:1 - - [26/Jun/2019:22:20:27 +0800] "GET /test/index.jsp HTTP/1.1" 200 1263
0:0:0:0:0:0:0:1 - - [26/Jun/2019:22:20:27 +0800] "POST /test/Show.do HTTP/1.1" 200 478
0:0:0:0:0:0:0:1 - - [26/Jun/2019:22:20:27 +0800] "GET /test/index.jsp HTTP/1.1" 200 1263
0:0:0:0:0:0:0:1 - - [26/Jun/2019:22:20:27 +0800] "POST /test/Show.do HTTP/1.1" 200 478
0:0:0:0:0:0:0:1 - - [26/Jun/2019:22:20:28 +0800] "GET /test/Show.do HTTP/1.1" 200 478
0:0:0:0:0:0:0:1 - - [26/Jun/2019:22:20:28 +0800] "GET /test/Show.do HTTP/1.1" 200 478
0:0:0:0:0:0:0:1 - - [26/Jun/2019:22:20:28 +0800] "GET /test/Show.do HTTP/1.1" 200 478
0:0:0:0:0:0:0:1 - - [26/Jun/2019:22:20:30 +0800] "GET /test/add.jsp HTTP/1.1" 200 260
0:0:0:0:0:0:0:1 - - [26/Jun/2019:22:20:34 +0800] "GET /test/add.jsp HTTP/1.1" 200 260
0:0:0:0:0:0:0:1 - - [26/Jun/2019:22:20:34 +0800] "GET /test/add.jsp HTTP/1.1" 200 260
0:0:0:0:0:0:0:1 - - [26/Jun/2019:22:20:37 +0800] "GET /test/add.jsp HTTP/1.1" 200 260
0:0:0:0:0:0:0:1 - - [26/Jun/2019:22:20:37 +0800] "GET /test/add.jsp HTTP/1.1" 200 260
0:0:0:0:0:0:0:1 - - [26/Jun/2019:22:20:37 +0800] "GET /test/add.jsp HTTP/1.1" 200 260
0:0:0:0:0:0:0:1 - - [26/Jun/2019:22:20:37 +0800] "GET /test/add.jsp HTTP/1.1" 200 260
0:0:0:0:0:0:0:1 - - [26/Jun/2019:22:20:37 +0800] "GET /test/add.jsp HTTP/1.1" 200 260
0:0:0:0:0:0:0:1 - - [26/Jun/2019:22:20:38 +0800] "GET /test/add.jsp HTTP/1.1" 200 260
0:0:0:0:0:0:0:1 - - [26/Jun/2019:22:20:38 +0800] "GET /test/add.jsp HTTP/1.1" 200 260
0:0:0:0:0:0:0:1 - - [26/Jun/2019:22:20:38 +0800] "GET /test/add.jsp HTTP/1.1" 200 260
0:0:0:0:0:0:0:1 - - [26/Jun/2019:22:20:38 +0800] "GET /test/add.jsp HTTP/1.1" 200 265
0:0:0:0:0:0:0:1 - - [26/Jun/2019:22:20:45 +0800] "GET /test/add.jsp HTTP/1.1" 200 265
0:0:0:0:0:0:0:1 - - [26/Jun/2019:22:21:49 +0800] "GET /test/add.jsp HTTP/1.1" 200 265
127.0.0.1 - - [26/Jun/2019:23:21:34 +0800] "GET / HTTP/1.1" 404 1068
0:0:0:0:0:0:0:1 - - [26/Jun/2019:23:21:55 +0800] "GET /test/index.jsp HTTP/1.1" 200 1263
0:0:0:0:0:0:0:1 - - [26/Jun/2019:23:21:57 +0800] "POST /test/Show.do HTTP/1.1" 200 478
0:0:0:0:0:0:0:1 - - [26/Jun/2019:23:21:59 +0800] "GET /test/add.jsp HTTP/1.1" 200 782
0:0:0:0:0:0:0:1 - - [26/Jun/2019:23:22:43 +0800] "GET /test/add.jsp HTTP/1.1" 200 849
0:0:0:0:0:0:0:1 - - [26/Jun/2019:23:23:08 +0800] "GET /test/add.jsp HTTP/1.1" 200 848
127.0.0.1 - - [26/Jun/2019:23:23:36 +0800] "GET / HTTP/1.1" 404 1068
0:0:0:0:0:0:0:1 - - [26/Jun/2019:23:23:38 +0800] "GET /test/index.jsp HTTP/1.1" 200 1263
0:0:0:0:0:0:0:1 - - [26/Jun/2019:23:23:40 +0800] "POST /test/Show.do HTTP/1.1" 200 478
0:0:0:0:0:0:0:1 - - [26/Jun/2019:23:23:41 +0800] "GET /test/add.jsp HTTP/1.1" 200 848
0:0:0:0:0:0:0:1 - - [26/Jun/2019:23:23:52 +0800] "GET /test/add.jsp HTTP/1.1" 200 848
0:0:0:0:0:0:0:1 - - [26/Jun/2019:23:23:53 +0800] "GET /test/add.jsp HTTP/1.1" 200 848
0:0:0:0:0:0:0:1 - - [26/Jun/2019:23:23:54 +0800] "GET /test/add.jsp HTTP/1.1" 200 848
0:0:0:0:0:0:0:1 - - [26/Jun/2019:23:24:19 +0800] "GET /test/add.jsp HTTP/1.1" 200 848
0:0:0:0:0:0:0:1 - - [26/Jun/2019:23:24:26 +0800] "POST /test/add.do HTTP/1.1" 200 1263
0:0:0:0:0:0:0:1 - - [26/Jun/2019:23:24:26 +0800] "POST /test/Show.do HTTP/1.1" 200 557
0:0:0:0:0:0:0:1 - - [26/Jun/2019:23:24:28 +0800] "GET /test/add.jsp HTTP/1.1" 200 848
0:0:0:0:0:0:0:1 - - [26/Jun/2019:23:24:35 +0800] "POST /test/add.do HTTP/1.1" 200 1263
0:0:0:0:0:0:0:1 - - [26/Jun/2019:23:24:35 +0800] "POST /test/Show.do HTTP/1.1" 200 637
0:0:0:0:0:0:0:1 - - [26/Jun/2019:23:25:27 +0800] "POST /test/add.do HTTP/1.1" 200 1263
0:0:0:0:0:0:0:1 - - [26/Jun/2019:23:25:27 +0800] "POST /test/Show.do HTTP/1.1" 200 717
0:0:0:0:0:0:0:1 - - [26/Jun/2019:23:25:29 +0800] "POST /test/add.do HTTP/1.1" 200 1263
0:0:0:0:0:0:0:1 - - [26/Jun/2019:23:25:29 +0800] "POST /test/Show.do HTTP/1.1" 200 797
